(footprint "ESP-12E" (version 20211014) (generator pcbnew)
  (layer "F.Cu")
  (tedit 5A030172)
  (descr "Wi-Fi Module, http://wiki.ai-thinker.com/_media/esp8266/docs/aithinker_esp_12f_datasheet_en.pdf")
  (tags "Wi-Fi Module")
  (attr smd)
  (fp_text reference "REF**" (at -10.56 -5.26) (layer "F.SilkS")
    (effects (font (size 1 1) (thickness 0.15)))
    (tstamp daf6c3ff-32d5-4d4b-bc35-512dfdf8753e)
  )
  (fp_text value "ESP-12E" (at -0.06 -12.78) (layer "F.Fab")
    (effects (font (size 1 1) (thickness 0.15)))
    (tstamp 62615246-037d-4c8b-810d-b056e6706ce2)
  )
  (fp_text user "Antenna" (at -0.06 -7 180) (layer "Cmts.User")
    (effects (font (size 1 1) (thickness 0.15)))
    (tstamp 68e232b1-0c29-46a6-bef2-5465c0f7d781)
  )
  (fp_text user "KEEP-OUT ZONE" (at 0.03 -9.55 180) (layer "Cmts.User")
    (effects (font (size 1 1) (thickness 0.15)))
    (tstamp a5d886a0-7ebb-4eeb-be39-502f6a8f342a)
  )
  (fp_text user "${REFERENCE}" (at 0.49 -0.8) (layer "F.Fab")
    (effects (font (size 1 1) (thickness 0.15)))
    (tstamp b0d749ae-edf2-4d80-a46c-47ba82f5f334)
  )
  (fp_line (start 8.12 -12.12) (end 8.12 -4.5) (layer "F.SilkS") (width 0.12) (tstamp 366dd6c9-bcb3-41a3-9f9e-d70b2537d780))
  (fp_line (start 8.12 11.5) (end 8.12 12.12) (layer "F.SilkS") (width 0.12) (tstamp 5d1589d0-144a-43e1-acc1-b69f7ebcbe2f))
  (fp_line (start -6 12.12) (end -8.12 12.12) (layer "F.SilkS") (width 0.12) (tstamp a58edbde-d2e3-45d0-9b9b-84101b3e8868))
  (fp_line (start -8.12 -4.5) (end -8.73 -4.5) (layer "F.SilkS") (width 0.12) (tstamp b311e386-4859-49d8-9f40-170db12bbca7))
  (fp_line (start 8.12 12.12) (end 6 12.12) (layer "F.SilkS") (width 0.12) (tstamp bd0caf2f-af4c-40c3-80c8-93c7e27fd54b))
  (fp_line (start -8.12 -12.12) (end 8.12 -12.12) (layer "F.SilkS") (width 0.12) (tstamp c32caffd-1436-4ee3-9804-81ee2f781add))
  (fp_line (start -8.12 -4.5) (end -8.12 -12.12) (layer "F.SilkS") (width 0.12) (tstamp e8f8e005-36e1-4f12-860f-7f7e3c75d9fa))
  (fp_line (start -8.12 12.12) (end -8.12 11.5) (layer "F.SilkS") (width 0.12) (tstamp f43ce0ad-dfad-4c90-b380-2e10374b7566))
  (fp_line (start 8.12 -12.12) (end 8.12 -4.8) (layer "Dwgs.User") (width 0.12) (tstamp 14ad9042-2151-4be4-a034-a60c8d7ffb3b))
  (fp_line (start 8.12 -4.8) (end -8.12 -4.8) (layer "Dwgs.User") (width 0.12) (tstamp 17af706c-c54c-4de1-b780-1ff1474c3c9d))
  (fp_line (start -3.44 -4.8) (end 3.88 -12.12) (layer "Dwgs.User") (width 0.12) (tstamp 4bf3d530-9e87-4ba2-a735-8b68ba5fd481))
  (fp_line (start -0.44 -4.8) (end 6.88 -12.12) (layer "Dwgs.User") (width 0.12) (tstamp 7712e43d-624f-4d69-a959-7b84532b12fb))
  (fp_line (start -8.12 -9.12) (end -5.12 -12.12) (layer "Dwgs.User") (width 0.12) (tstamp 7c32574d-e3f3-450f-be83-e7d0fcc9a315))
  (fp_line (start 5.56 -4.8) (end 8.12 -7.36) (layer "Dwgs.User") (width 0.12) (tstamp 961e4bae-f9e6-419f-b736-f33e02cfc803))
  (fp_line (start -8.12 -4.8) (end -8.12 -12.12) (layer "Dwgs.User") (width 0.12) (tstamp b9d8f7fa-af16-4936-b598-6813f9a44a84))
  (fp_line (start -8.12 -6.12) (end -2.12 -12.12) (layer "Dwgs.User") (width 0.12) (tstamp c4bf7c6b-c036-4f10-a65b-92d2dc23706c))
  (fp_line (start -6.44 -4.8) (end 0.88 -12.12) (layer "Dwgs.User") (width 0.12) (tstamp e4c1fc2d-a600-4d63-bcc1-fcdabf70dceb))
  (fp_line (start 2.56 -4.8) (end 8.12 -10.36) (layer "Dwgs.User") (width 0.12) (tstamp e9653b2e-ed55-4485-969e-f0b099725762))
  (fp_line (start -8.12 -12.12) (end 8.12 -12.12) (layer "Dwgs.User") (width 0.12) (tstamp f816df6e-6a13-4c99-b020-9e4b7a5fbc9d))
  (fp_line (start -9.05 13.1) (end -9.05 -12.2) (layer "F.CrtYd") (width 0.05) (tstamp 06d995cf-cc10-4cbf-a9dd-02b6875920b4))
  (fp_line (start 9.05 13.1) (end -9.05 13.1) (layer "F.CrtYd") (width 0.05) (tstamp 0b0f27f1-4eda-401e-997c-f15ca575e282))
  (fp_line (start 9.05 -12.2) (end 9.05 13.1) (layer "F.CrtYd") (width 0.05) (tstamp 6d7694a8-eeeb-4605-b4e5-5ab024d59088))
  (fp_line (start -9.05 -12.2) (end 9.05 -12.2) (layer "F.CrtYd") (width 0.05) (tstamp 7480f736-2280-49d7-a39a-329e912bf18b))
  (fp_line (start -8 -4) (end -8 -12) (layer "F.Fab") (width 0.12) (tstamp 2ec58618-dcb7-4f37-9286-bb0061a3992a))
  (fp_line (start -7.5 -3.5) (end -8 -4) (layer "F.Fab") (width 0.12) (tstamp 5c6ec1ca-7601-40aa-a5f8-aea6f9dcfe0e))
  (fp_line (start -8 -12) (end 8 -12) (layer "F.Fab") (width 0.12) (tstamp 73074bf3-d14b-4436-b563-9f4e9b2f907c))
  (fp_line (start 8 -12) (end 8 12) (layer "F.Fab") (width 0.12) (tstamp ab539a99-ec5d-49b0-b480-33fb630fa3f2))
  (fp_line (start 8 12) (end -8 12) (layer "F.Fab") (width 0.12) (tstamp d226df94-6649-43dc-bc99-3a339ccc64dd))
  (fp_line (start -8 12) (end -8 -3) (layer "F.Fab") (width 0.12) (tstamp ea723ba5-d3f8-45ad-8ba4-7b71400f2b76))
  (fp_line (start -8 -3) (end -7.5 -3.5) (layer "F.Fab") (width 0.12) (tstamp fbd4e260-3b94-4615-a950-edeff3f76e8a))
  (pad "1" smd rect (at -7.6 -3.5) (size 2.5 1) (layers "F.Cu" "F.Paste" "F.Mask") (tstamp 2c63f85f-a03f-442c-8242-fe5f8a676132))
  (pad "2" smd rect (at -7.6 -1.5) (size 2.5 1) (layers "F.Cu" "F.Paste" "F.Mask") (tstamp 3bd9c0d9-b742-41f7-9398-5ecf448e00b3))
  (pad "3" smd rect (at -7.6 0.5) (size 2.5 1) (layers "F.Cu" "F.Paste" "F.Mask") (tstamp e45c91e0-28a4-4890-ae92-569e644ed783))
  (pad "4" smd rect (at -7.6 2.5) (size 2.5 1) (layers "F.Cu" "F.Paste" "F.Mask") (tstamp 98f670fa-5d61-4ab0-a272-250440e4c320))
  (pad "5" smd rect (at -7.6 4.5) (size 2.5 1) (layers "F.Cu" "F.Paste" "F.Mask") (tstamp 77cc9cf1-965e-4e72-82db-aaca58d1413e))
  (pad "6" smd rect (at -7.6 6.5) (size 2.5 1) (layers "F.Cu" "F.Paste" "F.Mask") (tstamp 1336481d-1b9b-4081-a226-416e8d9af242))
  (pad "7" smd rect (at -7.6 8.5) (size 2.5 1) (layers "F.Cu" "F.Paste" "F.Mask") (tstamp edfd9f3a-b810-4f60-84ec-0bce78274833))
  (pad "8" smd rect (at -7.6 10.5) (size 2.5 1) (layers "F.Cu" "F.Paste" "F.Mask") (tstamp 4f595340-5aa1-4673-a685-10d94214fb4e))
  (pad "9" smd rect (at -5 12) (size 1 1.8) (layers "F.Cu" "F.Paste" "F.Mask") (tstamp f7d77833-38f7-47d5-a9b8-05a0371655e7))
  (pad "10" smd rect (at -3 12) (size 1 1.8) (layers "F.Cu" "F.Paste" "F.Mask") (tstamp 993b2268-3755-4904-b9d2-88432cae5648))
  (pad "11" smd rect (at -1 12) (size 1 1.8) (layers "F.Cu" "F.Paste" "F.Mask") (tstamp 9692ac63-3d18-4b49-9e5d-4f3a1b18cced))
  (pad "12" smd rect (at 1 12) (size 1 1.8) (layers "F.Cu" "F.Paste" "F.Mask") (tstamp e639e35d-6f2e-4724-8474-1c9deddc4c7a))
  (pad "13" smd rect (at 3 12) (size 1 1.8) (layers "F.Cu" "F.Paste" "F.Mask") (tstamp 96b27628-3b69-412a-a80c-faf066614e56))
  (pad "14" smd rect (at 5 12) (size 1 1.8) (layers "F.Cu" "F.Paste" "F.Mask") (tstamp fd61c9fd-725f-47d2-a321-359d0b91663b))
  (pad "15" smd rect (at 7.6 10.5) (size 2.5 1) (layers "F.Cu" "F.Paste" "F.Mask") (tstamp 0e3fea34-6cc5-4624-bd99-a7c9c8f03aa2))
  (pad "16" smd rect (at 7.6 8.5) (size 2.5 1) (layers "F.Cu" "F.Paste" "F.Mask") (tstamp 13bb0d0f-33a6-4ffc-86b0-204f8c51f908))
  (pad "17" smd rect (at 7.6 6.5) (size 2.5 1) (layers "F.Cu" "F.Paste" "F.Mask") (tstamp 83f11dd7-9408-4455-be69-fa024c931d24))
  (pad "18" smd rect (at 7.6 4.5) (size 2.5 1) (layers "F.Cu" "F.Paste" "F.Mask") (tstamp 01bbdbc1-9dc6-45fd-bd60-2859e475f935))
  (pad "19" smd rect (at 7.6 2.5) (size 2.5 1) (layers "F.Cu" "F.Paste" "F.Mask") (tstamp 55a0405c-a52e-45b8-a6de-d33c96c1de23))
  (pad "20" smd rect (at 7.6 0.5) (size 2.5 1) (layers "F.Cu" "F.Paste" "F.Mask") (tstamp 98725a5a-5d6f-48e7-83cd-f958cf3a7068))
  (pad "21" smd rect (at 7.6 -1.5) (size 2.5 1) (layers "F.Cu" "F.Paste" "F.Mask") (tstamp f0bf2ceb-2691-4ecf-8dc5-cf12218cf6b7))
  (pad "22" smd rect (at 7.6 -3.5) (size 2.5 1) (layers "F.Cu" "F.Paste" "F.Mask") (tstamp b9d596c8-1442-441b-8697-5b4beae4c0c8))
  (model "${KICAD6_3DMODEL_DIR}/RF_Module.3dshapes/ESP-12E.wrl"
    (offset (xyz 0 0 0))
    (scale (xyz 1 1 1))
    (rotate (xyz 0 0 0))
  )
)
