(footprint "ESP-07" (version 20211014) (generator pcbnew)
  (layer "F.Cu")
  (tedit 5B1D6972)
  (descr "Wi-Fi Module, http://wiki.ai-thinker.com/_media/esp8266/docs/a007ps01a2_esp-07_product_specification_v1.2.pdf")
  (tags "Wi-Fi Module")
  (attr smd)
  (fp_text reference "REF**" (at 0 11.6) (layer "F.SilkS")
    (effects (font (size 1 1) (thickness 0.15)))
    (tstamp d8effc85-5684-4466-8535-a99f82591335)
  )
  (fp_text value "ESP-07" (at 0 9.6) (layer "F.Fab")
    (effects (font (size 1 1) (thickness 0.15)))
    (tstamp 6ffd1dab-5bab-4aa1-96a9-4ab576ada2b3)
  )
  (fp_text user "KEEP-OUT ZONE" (at 0 -17.3 180) (layer "Cmts.User")
    (effects (font (size 1 1) (thickness 0.15)))
    (tstamp 22e5c2be-76ed-4d5a-af48-5d21b9225e56)
  )
  (fp_text user "No metal, traces, or components\non any PCB layer if using on-board antenna" (at 0 -14.3 180) (layer "Cmts.User")
    (effects (font (size 0.8 0.8) (thickness 0.12)))
    (tstamp 48c8d379-cace-4e0a-b131-0ed6907efcbd)
  )
  (fp_text user "${REFERENCE}" (at 0 0) (layer "F.Fab")
    (effects (font (size 1 1) (thickness 0.15)))
    (tstamp 6da8ab9e-9c15-4a98-bd75-048d51d79e7b)
  )
  (fp_line (start 8.12 9.9) (end 8.12 10.72) (layer "F.SilkS") (width 0.12) (tstamp 04b576f9-aefb-4f3b-94ef-b5bab604e7c2))
  (fp_line (start -8.12 4.3) (end -8.12 3.9) (layer "F.SilkS") (width 0.12) (tstamp 0ed4b21e-8d68-408a-a886-1706bebf4bc8))
  (fp_line (start -8.12 10.72) (end -8.12 9.9) (layer "F.SilkS") (width 0.12) (tstamp 2e1c0a24-00ea-4714-93e8-f514c4fe914c))
  (fp_line (start 8.12 0.3) (end 8.12 -0.1) (layer "F.SilkS") (width 0.12) (tstamp 315ff745-c5b7-4647-8338-d87f277384c9))
  (fp_line (start 8.12 -3.7) (end 8.12 -4.1) (layer "F.SilkS") (width 0.12) (tstamp 62692a07-fc05-4a75-b081-c5f5c272ba36))
  (fp_line (start 8.12 8.3) (end 8.12 7.9) (layer "F.SilkS") (width 0.12) (tstamp 6f2723a5-06a5-4490-9dbb-384579adc283))
  (fp_line (start -8.12 -1.7) (end -8.12 -2.1) (layer "F.SilkS") (width 0.12) (tstamp 85003ef5-e5fc-4de9-9f6c-565fe3eb623a))
  (fp_line (start -9.15 -5.4) (end -9.15 -4.4) (layer "F.SilkS") (width 0.12) (tstamp 86a1ef3d-befa-4706-b4c8-4fe542617a33))
  (fp_line (start 8.12 6.3) (end 8.12 5.9) (layer "F.SilkS") (width 0.12) (tstamp 942323be-03f7-458a-8b4b-375aae530e7a))
  (fp_line (start 8.12 4.3) (end 8.12 3.9) (layer "F.SilkS") (width 0.12) (tstamp 9fe9bcbf-15eb-42d9-b844-b61cf1707b03))
  (fp_line (start -8.12 -3.7) (end -8.12 -4.1) (layer "F.SilkS") (width 0.12) (tstamp b7c1ba6d-6f1d-49c6-989c-ca8cc659093c))
  (fp_line (start -8.12 6.3) (end -8.12 5.9) (layer "F.SilkS") (width 0.12) (tstamp c7aaf862-609c-499f-ac10-a5f6e7907f89))
  (fp_line (start 8.12 -1.7) (end 8.12 -2.1) (layer "F.SilkS") (width 0.12) (tstamp c9583da8-959c-4558-98bc-9032ad07ff1d))
  (fp_line (start -8.12 0.3) (end -8.12 -0.1) (layer "F.SilkS") (width 0.12) (tstamp ca1414d6-bf09-4b75-b144-dd363da9eeb8))
  (fp_line (start -8.12 8.3) (end -8.12 7.9) (layer "F.SilkS") (width 0.12) (tstamp cca07448-03b7-42cd-8760-dd4edc8bd1c4))
  (fp_line (start -8.12 2.3) (end -8.12 1.9) (layer "F.SilkS") (width 0.12) (tstamp de7aaa3b-f126-4d85-b19d-fc59a336e1ce))
  (fp_line (start 8.12 2.3) (end 8.12 1.9) (layer "F.SilkS") (width 0.12) (tstamp e2d5f583-2400-4aae-9f4e-442d29bf2c00))
  (fp_line (start 8.12 10.72) (end -8.12 10.72) (layer "F.SilkS") (width 0.12) (tstamp e72c81fd-621c-44d3-8098-0fe9735240e3))
  (fp_line (start -17 -25.6) (end -23 -19.6) (layer "Dwgs.User") (width 0.12) (tstamp 0ddf6797-9c83-4a2c-b277-015e82066abf))
  (fp_line (start 19 -25.6) (end -0.6 -6) (layer "Dwgs.User") (width 0.12) (tstamp 137c6711-1581-486b-ad2e-de9dd5c53b96))
  (fp_line (start 23 -17.6) (end 11.4 -6) (layer "Dwgs.User") (width 0.12) (tstamp 14fb9546-56f4-47d7-819e-10207526b8e6))
  (fp_line (start 23 -8.6) (end 20.4 -6) (layer "Dwgs.User") (width 0.12) (tstamp 1ce5b1e9-86a8-4e54-893a-6e275812fe3c))
  (fp_line (start -5 -25.6) (end -23 -7.6) (layer "Dwgs.User") (width 0.12) (tstamp 21cd3192-8453-4e08-9b67-46bb6fcddebf))
  (fp_line (start -23 -25.6) (end 23 -25.6) (layer "Dwgs.User") (width 0.12) (tstamp 2a2c855d-990c-41db-b23e-bd93f23657a0))
  (fp_line (start -2 -25.6) (end -21.6 -6) (layer "Dwgs.User") (width 0.12) (tstamp 3d46110b-7a03-440a-8a3d-62e3bc0e95ea))
  (fp_line (start 23 -14.6) (end 14.4 -6) (layer "Dwgs.User") (width 0.12) (tstamp 4a9f7c98-ae5f-41d0-b353-a443027ff1e8))
  (fp_line (start 1 -25.6) (end -18.6 -6) (layer "Dwgs.User") (width 0.12) (tstamp 6b4672a7-d1d6-498b-ad1a-1f7405afd3d1))
  (fp_line (start -20 -25.6) (end -23 -22.6) (layer "Dwgs.User") (width 0.12) (tstamp 74bcb4f1-be59-446e-b52b-71591ce8cf0c))
  (fp_line (start 5.4 -6) (end 23 -23.6) (layer "Dwgs.User") (width 0.12) (tstamp 8f8c7da2-7405-4106-be29-39f4e056c29f))
  (fp_line (start 23 -11.6) (end 17.4 -6) (layer "Dwgs.User") (width 0.12) (tstamp 9c52f4a4-6382-4ddb-8a4c-91ae9ff75653))
  (fp_line (start -15.6 -6) (end 4 -25.6) (layer "Dwgs.User") (width 0.12) (tstamp a1150998-e5f0-4e3d-8ff6-62fbd5bc08a5))
  (fp_line (start 23 -20.6) (end 8.4 -6) (layer "Dwgs.User") (width 0.12) (tstamp afd55afb-4a53-418b-b3c7-292df58bfdd6))
  (fp_line (start -8 -25.6) (end -23 -10.6) (layer "Dwgs.User") (width 0.12) (tstamp b697262d-b0c5-4cd4-a674-27d147171ddd))
  (fp_line (start 2.4 -6) (end 22 -25.6) (layer "Dwgs.User") (width 0.12) (tstamp b6eb422b-4984-4a8f-8af7-b8b720269239))
  (fp_line (start 23 -6) (end 23 -25.6) (layer "Dwgs.User") (width 0.12) (tstamp b7a108f9-f99e-4538-a80c-729b994b1617))
  (fp_line (start 23 -6) (end -23 -6) (layer "Dwgs.User") (width 0.12) (tstamp c50d2415-2c2c-48bb-b4e9-364d71ca737b))
  (fp_line (start -14 -25.6) (end -23 -16.6) (layer "Dwgs.User") (width 0.12) (tstamp c5de4e08-c1da-4d99-a81e-2f6824eb64cc))
  (fp_line (start 7 -25.6) (end -12.6 -6) (layer "Dwgs.User") (width 0.12) (tstamp c6401d81-2d33-4ab0-b064-0bc454e8444a))
  (fp_line (start -11 -25.6) (end -23 -13.6) (layer "Dwgs.User") (width 0.12) (tstamp dc04a807-177f-41f7-8c8d-e724739d6601))
  (fp_line (start 16 -25.6) (end -3.6 -6) (layer "Dwgs.User") (width 0.12) (tstamp ed05b102-6773-44bc-a965-90201bc50f65))
  (fp_line (start -23 -25.6) (end -23 -6) (layer "Dwgs.User") (width 0.12) (tstamp ed3d663f-45af-4e5b-bba3-184a79106cf1))
  (fp_line (start 10 -25.6) (end -9.6 -6) (layer "Dwgs.User") (width 0.12) (tstamp f95d71e1-9873-450f-9f61-4b4804341f92))
  (fp_line (start -6.6 -6) (end 13 -25.6) (layer "Dwgs.User") (width 0.12) (tstamp faf185f3-92b0-4ddc-a48f-93a5b35a72c3))
  (fp_line (start 9.1 10.85) (end -9.1 10.85) (layer "F.CrtYd") (width 0.05) (tstamp 13c08ad4-5880-4604-99b3-588379fd3179))
  (fp_line (start -9.1 -10.85) (end 9.1 -10.85) (layer "F.CrtYd") (width 0.05) (tstamp 66d1f06e-97ef-4b60-a216-b19ffc12a922))
  (fp_line (start -9.1 10.85) (end -9.1 -10.85) (layer "F.CrtYd") (width 0.05) (tstamp 9be1bfe3-abe5-456d-854c-f40056c8fce0))
  (fp_line (start 9.1 -10.85) (end 9.1 10.85) (layer "F.CrtYd") (width 0.05) (tstamp a0cadc67-44f3-4b3c-a2a0-ee397fd6488b))
  (fp_line (start -8 -4.4) (end -7.5 -4.9) (layer "F.Fab") (width 0.1) (tstamp 02665fbd-01c0-49dc-a8d3-39627191d59c))
  (fp_line (start -8 -5.4) (end -8 -10.6) (layer "F.Fab") (width 0.1) (tstamp 26814814-4104-4aeb-addd-ae2a48047c3b))
  (fp_line (start -8 -10.6) (end 8 -10.6) (layer "F.Fab") (width 0.1) (tstamp 343bd8be-3ca2-4887-865a-517b75148d37))
  (fp_line (start -8 10.6) (end -8 -4.4) (layer "F.Fab") (width 0.1) (tstamp 940e4b01-02b9-4309-b1eb-341381dd7799))
  (fp_line (start -7.5 -4.9) (end -8 -5.4) (layer "F.Fab") (width 0.1) (tstamp a0ba58cb-b6cb-485d-95f4-e871c341cfbb))
  (fp_line (start 8 10.6) (end -8 10.6) (layer "F.Fab") (width 0.1) (tstamp c2403122-3845-4ced-b8ff-997d1638f568))
  (fp_line (start 8 -10.6) (end 8 10.6) (layer "F.Fab") (width 0.1) (tstamp d106203b-ac3a-4669-ad56-41920169c64e))
  (pad "1" smd rect (at -7.6 -4.9) (size 2.5 1) (layers "F.Cu" "F.Paste" "F.Mask") (tstamp d2d2b823-1e1c-4648-a1e1-e892c0d11479))
  (pad "2" smd rect (at -7.6 -2.9) (size 2.5 1) (layers "F.Cu" "F.Paste" "F.Mask") (tstamp 877cfd44-58d9-407b-9653-e052f75d0169))
  (pad "3" smd rect (at -7.6 -0.9) (size 2.5 1) (layers "F.Cu" "F.Paste" "F.Mask") (tstamp 1c3d0ca8-54b0-45fb-8465-b95a08abfa51))
  (pad "4" smd rect (at -7.6 1.1) (size 2.5 1) (layers "F.Cu" "F.Paste" "F.Mask") (tstamp c24df81a-040d-4e32-85d4-f33719f5190b))
  (pad "5" smd rect (at -7.6 3.1) (size 2.5 1) (layers "F.Cu" "F.Paste" "F.Mask") (tstamp 2e236891-6fd6-4563-aeb9-ab3bd1986171))
  (pad "6" smd rect (at -7.6 5.1) (size 2.5 1) (layers "F.Cu" "F.Paste" "F.Mask") (tstamp e8ef905c-5d7c-4627-bca1-269c471785e0))
  (pad "7" smd rect (at -7.6 7.1) (size 2.5 1) (layers "F.Cu" "F.Paste" "F.Mask") (tstamp fd30e4dd-8fef-4b0a-89c0-e062e6e32b5d))
  (pad "8" smd rect (at -7.6 9.1) (size 2.5 1) (layers "F.Cu" "F.Paste" "F.Mask") (tstamp 88e79f73-310e-4d4e-b546-297919ecf59c))
  (pad "9" smd rect (at 7.6 9.1) (size 2.5 1) (layers "F.Cu" "F.Paste" "F.Mask") (tstamp 16f1aeff-0b5b-4917-8610-b3649d12a49c))
  (pad "10" smd rect (at 7.6 7.1) (size 2.5 1) (layers "F.Cu" "F.Paste" "F.Mask") (tstamp c75f7770-3c0c-4d4a-86f8-c9a439b951dc))
  (pad "11" smd rect (at 7.6 5.1) (size 2.5 1) (layers "F.Cu" "F.Paste" "F.Mask") (tstamp d2909bf5-bcba-4b91-abe9-73c5f37b9970))
  (pad "12" smd rect (at 7.6 3.1) (size 2.5 1) (layers "F.Cu" "F.Paste" "F.Mask") (tstamp 62559cd9-3e63-479b-bea5-5b7574d5a158))
  (pad "13" smd rect (at 7.6 1.1) (size 2.5 1) (layers "F.Cu" "F.Paste" "F.Mask") (tstamp 2888e63d-fa76-4fe6-a74d-223a26f1b501))
  (pad "14" smd rect (at 7.6 -0.9) (size 2.5 1) (layers "F.Cu" "F.Paste" "F.Mask") (tstamp a4adb471-1c79-4241-b8cb-109355a9b694))
  (pad "15" smd rect (at 7.6 -2.9) (size 2.5 1) (layers "F.Cu" "F.Paste" "F.Mask") (tstamp b5c3ead5-0d22-4de9-8f96-fd5c8f0a4892))
  (pad "16" smd rect (at 7.6 -4.9) (size 2.5 1) (layers "F.Cu" "F.Paste" "F.Mask") (tstamp d9dbd242-a33b-478c-b14f-70838d8c809b))
  (model "${KICAD6_3DMODEL_DIR}/RF_Module.3dshapes/ESP-07.wrl"
    (offset (xyz 0 0 0))
    (scale (xyz 1 1 1))
    (rotate (xyz 0 0 0))
  )
)
