(footprint "ESP32-S2-WROVER" (version 20211014) (generator pcbnew)
  (layer "F.Cu")
  (tedit 5E764C18)
  (descr "ESP32-S2-WROVER(-I) 2.4 GHz Wi-Fi https://www.espressif.com/sites/default/files/documentation/esp32-s2-wroom_esp32-s2-wroom-i_datasheet_en.pdf")
  (tags "ESP32-S2  ESP32  WIFI")
  (attr smd)
  (fp_text reference "REF**" (at -10.41 10.53 90) (layer "F.SilkS")
    (effects (font (size 1 1) (thickness 0.15)))
    (tstamp 3b212c61-d345-412a-90f0-13e461520740)
  )
  (fp_text value "ESP32-S2-WROVER" (at 0.04 13.145 180) (layer "F.Fab")
    (effects (font (size 1 1) (thickness 0.15)))
    (tstamp b1b16c6a-c055-4cb3-bf59-83f05f08039a)
  )
  (fp_text user "KEEP-OUT ZONE" (at 0 -27.09) (layer "Cmts.User")
    (effects (font (size 2 2) (thickness 0.15)))
    (tstamp a82b23b1-66a9-41f5-ab40-b3aaf535e905)
  )
  (fp_text user "ANTENNA" (at 0 -16.15) (layer "Cmts.User")
    (effects (font (size 1.25 1.25) (thickness 0.15)))
    (tstamp b9b930ff-8565-4ebe-8613-43d3cb4f00ff)
  )
  (fp_text user "${REFERENCE}" (at 0 0) (layer "F.Fab")
    (effects (font (size 1 1) (thickness 0.15)))
    (tstamp da9bf396-e803-4615-9458-7fc569892ef9)
  )
  (fp_line (start 9.12 11.54) (end 9.12 11.8) (layer "F.SilkS") (width 0.12) (tstamp 0daf3777-e63e-46d6-8190-52bee3857ef1))
  (fp_line (start -9.125 -19.45) (end 9.13 -19.45) (layer "F.SilkS") (width 0.12) (tstamp 4e4460fd-5cad-42fe-956d-3f4dbc3c5f52))
  (fp_line (start -9.12 11.44) (end -9.12 11.8) (layer "F.SilkS") (width 0.12) (tstamp 571a25dc-5112-48e9-8d3f-0f8c40dcf5c5))
  (fp_line (start 9.12 11.8) (end 7.46 11.8) (layer "F.SilkS") (width 0.12) (tstamp 837b7562-5d7e-424b-9583-eec1edcd2b74))
  (fp_line (start -9.11 -12.37) (end -9.125 -19.45) (layer "F.SilkS") (width 0.12) (tstamp d42e36f5-73b7-4688-9073-8dc3a1c20089))
  (fp_line (start -9.12 11.8) (end -7.46 11.8) (layer "F.SilkS") (width 0.12) (tstamp e1f6e68c-841a-4b5d-9d8c-e99583b23c28))
  (fp_line (start 9.13 -13.03) (end 9.13 -19.45) (layer "F.SilkS") (width 0.12) (tstamp e8b83f7f-c7af-435c-ae92-e27fa694479d))
  (fp_line (start -9.11 -12.37) (end -9.5 -12.37) (layer "F.SilkS") (width 0.12) (tstamp f843b67c-b16a-4efb-a258-999b25f2aaaf))
  (fp_line (start 18.31 -34.32) (end -2.95 -13.03) (layer "Dwgs.User") (width 0.12) (tstamp 030a4f58-326f-4fe7-86c0-54ba50720d4b))
  (fp_line (start -6.7 -34.32) (end -24 -17.01) (layer "Dwgs.User") (width 0.12) (tstamp 1de7cbf6-65e1-4e34-8adf-81d3cd7cde4b))
  (fp_line (start 8.26 -34.32) (end -13.01 -13.02) (layer "Dwgs.User") (width 0.12) (tstamp 1dfc2061-792d-47ea-b26f-eab51ff03803))
  (fp_line (start -24 -34.323) (end -24 -13.023) (layer "Dwgs.User") (width 0.12) (tstamp 235e12c5-70bd-483c-b6b4-29ee02f09057))
  (fp_line (start -16.69 -34.32) (end -24 -27) (layer "Dwgs.User") (width 0.12) (tstamp 398e2f32-39d0-4414-9ba0-bf68cad0dd92))
  (fp_line (start -24 -34.323) (end 24 -34.323) (layer "Dwgs.User") (width 0.12) (tstamp 44ad343a-85e3-4986-86e1-b28df5d80fbe))
  (fp_line (start 3.27 -34.32) (end -18 -13.03) (layer "Dwgs.User") (width 0.12) (tstamp 4a1318f1-44be-4022-96d9-0a11d6ec603b))
  (fp_line (start 13.28 -34.32) (end -7.99 -13.03) (layer "Dwgs.User") (width 0.12) (tstamp 4d920b33-2c04-4263-9b2b-d62eab0c8672))
  (fp_line (start 23.28 -34.32) (end 2 -13.03) (layer "Dwgs.User") (width 0.12) (tstamp 517a88a8-f562-4d89-b2ba-a5b23d98e5d4))
  (fp_line (start -24 -13.023) (end 24 -13.023) (layer "Dwgs.User") (width 0.12) (tstamp 7c9b1c35-996e-4071-80b7-a8b22bd77db3))
  (fp_line (start -11.69 -34.32) (end -24 -22.01) (layer "Dwgs.User") (width 0.12) (tstamp 81c3b1e5-3114-4796-ac33-ab2bc7b3fe4b))
  (fp_line (start 24 -25.02) (end 12 -13.03) (layer "Dwgs.User") (width 0.12) (tstamp 92f5e6d0-e686-41ca-84e7-c760749f5a84))
  (fp_line (start 24 -34.323) (end 24 -13.023) (layer "Dwgs.User") (width 0.12) (tstamp b8eec733-3e35-4217-8e8a-c78cb918b690))
  (fp_line (start 24 -15.03) (end 22 -13.03) (layer "Dwgs.User") (width 0.12) (tstamp b99dc841-91b8-4529-922c-1eb276d88661))
  (fp_line (start -1.73 -34.32) (end -23 -13.03) (layer "Dwgs.User") (width 0.12) (tstamp e395d27b-f885-49eb-9148-12ef1c54e45b))
  (fp_line (start -21.69 -34.32) (end -23.99 -32.02) (layer "Dwgs.User") (width 0.12) (tstamp e608fcc7-6445-46b6-a2ce-698d1bb80959))
  (fp_line (start 24 -30.04) (end 7.01 -13.03) (layer "Dwgs.User") (width 0.12) (tstamp f0b8168e-33a3-413a-9619-cc4ac82d20b4))
  (fp_line (start 24 -20.04) (end 17 -13.03) (layer "Dwgs.User") (width 0.12) (tstamp f1ac7715-936c-42aa-8ca7-f62d63fdf4a3))
  (fp_line (start 24.25 -12.77) (end 24.25 -34.57) (layer "F.CrtYd") (width 0.05) (tstamp 1c3757d7-f7af-4879-9cc5-f342ccfef0f2))
  (fp_line (start -9.63 -12.77) (end -9.63 12.47) (layer "F.CrtYd") (width 0.05) (tstamp 418d3291-31ce-42b6-bb1d-52077740a082))
  (fp_line (start -24.25 -12.77) (end -9.63 -12.77) (layer "F.CrtYd") (width 0.05) (tstamp 48e30412-7f07-4284-87a2-b8667bae51b6))
  (fp_line (start 24.25 -34.57) (end -24.25 -34.57) (layer "F.CrtYd") (width 0.05) (tstamp 556da5f9-6930-48aa-9566-b7532e396cbc))
  (fp_line (start -24.25 -34.57) (end -24.25 -12.77) (layer "F.CrtYd") (width 0.05) (tstamp 6740d793-9a75-4cd5-b5f6-3c4a9544151b))
  (fp_line (start -9.63 12.47) (end 9.63 12.47) (layer "F.CrtYd") (width 0.05) (tstamp 9c7696ea-1587-44a0-8913-b618e583deb5))
  (fp_line (start 9.63 -12.77) (end 24.25 -12.77) (layer "F.CrtYd") (width 0.05) (tstamp b4d6c2b4-3faa-4201-a81f-05db4ac1e80b))
  (fp_line (start 9.63 12.47) (end 9.63 -12.77) (layer "F.CrtYd") (width 0.05) (tstamp d98ddbba-65dd-46bc-9f8d-d6531fe035b6))
  (fp_line (start 9 -13.023) (end -9 -13.023) (layer "F.Fab") (width 0.1) (tstamp 167b9009-678d-4f3b-942b-aef241da6e5b))
  (fp_line (start -9 -19.323) (end 9 -19.323) (layer "F.Fab") (width 0.1) (tstamp 1b22e06d-81a2-489d-b946-85f445260a43))
  (fp_line (start -9 -12.02) (end -8.5 -12.52) (layer "F.Fab") (width 0.1) (tstamp 3fdc53f4-eb26-4a27-b357-8aa9ceac6dea))
  (fp_line (start -9 -12.02) (end -9 11.68) (layer "F.Fab") (width 0.1) (tstamp 4f2446f7-7e10-41c9-a5bd-f47ceebcc2f0))
  (fp_line (start -9 -19.32) (end -9 -13.02) (layer "F.Fab") (width 0.1) (tstamp 552e9c92-8563-4836-a3cb-ce2ba23decaa))
  (fp_line (start -8.5 -12.52) (end -9 -13.02) (layer "F.Fab") (width 0.1) (tstamp a9f751ed-22da-4f9f-9811-1e81729d337a))
  (fp_line (start -9 11.68) (end 9 11.68) (layer "F.Fab") (width 0.1) (tstamp b815a84b-3d01-4e8c-8a1c-2dfee83066c8))
  (fp_line (start 9 -19.32) (end 9 11.68) (layer "F.Fab") (width 0.1) (tstamp f44e3160-996d-45ad-9d3f-96d2d4474724))
  (pad "1" smd rect (at -8.625 -11.775) (size 1.5 0.9) (layers "F.Cu" "F.Paste" "F.Mask") (tstamp 8acc0137-d4e5-4a0f-8a3d-3a4e4614cefe))
  (pad "2" smd rect (at -8.625 -10.275) (size 1.5 0.9) (layers "F.Cu" "F.Paste" "F.Mask") (tstamp b1c04517-9187-4cdb-a151-bf76b773d2b2))
  (pad "3" smd rect (at -8.625 -8.775) (size 1.5 0.9) (layers "F.Cu" "F.Paste" "F.Mask") (tstamp 403f2adb-e5f0-4f6b-823a-7310163d7139))
  (pad "4" smd rect (at -8.625 -7.275) (size 1.5 0.9) (layers "F.Cu" "F.Paste" "F.Mask") (tstamp 16cfa20a-ab95-42ca-9617-6027866f498a))
  (pad "5" smd rect (at -8.625 -5.775) (size 1.5 0.9) (layers "F.Cu" "F.Paste" "F.Mask") (tstamp 7f8bda8b-fa43-4e3b-922f-cb91becb9112))
  (pad "6" smd rect (at -8.625 -4.275) (size 1.5 0.9) (layers "F.Cu" "F.Paste" "F.Mask") (tstamp 759eaad4-6874-45b5-aeed-72d4d32b07be))
  (pad "7" smd rect (at -8.625 -2.775) (size 1.5 0.9) (layers "F.Cu" "F.Paste" "F.Mask") (tstamp 021f10b5-6288-4c66-8788-e92d5258bfe0))
  (pad "8" smd rect (at -8.625 -1.275) (size 1.5 0.9) (layers "F.Cu" "F.Paste" "F.Mask") (tstamp 1656f55e-8d64-47d7-a1a2-20aaebc54447))
  (pad "9" smd rect (at -8.625 0.225) (size 1.5 0.9) (layers "F.Cu" "F.Paste" "F.Mask") (tstamp 0c1f9e20-c437-46a2-ae89-25bcac64e4a4))
  (pad "10" smd rect (at -8.625 1.725) (size 1.5 0.9) (layers "F.Cu" "F.Paste" "F.Mask") (tstamp 310d60d5-0955-494f-a82f-5dd971a9a61a))
  (pad "11" smd rect (at -8.625 3.225) (size 1.5 0.9) (layers "F.Cu" "F.Paste" "F.Mask") (tstamp 6f0fd233-b833-4c81-b9ef-889f93973241))
  (pad "12" smd rect (at -8.625 4.725) (size 1.5 0.9) (layers "F.Cu" "F.Paste" "F.Mask") (tstamp 59523bf6-79b0-4f08-9d30-dcc9c711f7bb))
  (pad "13" smd rect (at -8.625 6.225) (size 1.5 0.9) (layers "F.Cu" "F.Paste" "F.Mask") (tstamp 1834c5f7-1f33-440b-a264-9d6673fa542b))
  (pad "14" smd rect (at -8.625 7.725) (size 1.5 0.9) (layers "F.Cu" "F.Paste" "F.Mask") (tstamp db01a5ac-a88e-4b3b-9dab-2c252fa7d8b7))
  (pad "15" smd rect (at -8.625 9.225 180) (size 1.5 0.9) (layers "F.Cu" "F.Paste" "F.Mask") (tstamp 5b0a05ac-f4c5-415d-a268-a7691ea9cbea))
  (pad "16" smd rect (at -8.625 10.725 180) (size 1.5 0.9) (layers "F.Cu" "F.Paste" "F.Mask") (tstamp b128b323-5481-4eaa-9c07-c955554f80b7))
  (pad "17" smd rect (at -6.75 11.475) (size 0.9 1.5) (layers "F.Cu" "F.Paste" "F.Mask") (tstamp 4deeb1fb-b8d2-4b92-8329-0d4f3b0f7973))
  (pad "18" smd rect (at -5.25 11.475) (size 0.9 1.5) (layers "F.Cu" "F.Paste" "F.Mask") (tstamp 3523d5b1-aee9-43f0-b06f-cdd49c7c8244))
  (pad "19" smd rect (at -3.75 11.475) (size 0.9 1.5) (layers "F.Cu" "F.Paste" "F.Mask") (tstamp dbce1777-7324-4485-97b6-27785dd36779))
  (pad "20" smd rect (at -2.25 11.475) (size 0.9 1.5) (layers "F.Cu" "F.Paste" "F.Mask") (tstamp c9f365c1-8a78-46a7-9e3f-b2491a39e7be))
  (pad "21" smd rect (at -0.75 11.475) (size 0.9 1.5) (layers "F.Cu" "F.Paste" "F.Mask") (tstamp 5cdec53b-ba7b-4efa-a6ba-ceec914d78de))
  (pad "22" smd rect (at 0.75 11.475) (size 0.9 1.5) (layers "F.Cu" "F.Paste" "F.Mask") (tstamp 287c0561-eb6e-4c52-ace1-08dd59c50413))
  (pad "23" smd rect (at 2.25 11.475) (size 0.9 1.5) (layers "F.Cu" "F.Paste" "F.Mask") (tstamp 0a0b4fad-3f4a-457c-99df-ab3469d3de37))
  (pad "24" smd rect (at 3.75 11.475) (size 0.9 1.5) (layers "F.Cu" "F.Paste" "F.Mask") (tstamp 997e6281-b853-42d0-b178-cbb9122ccd5c))
  (pad "25" smd rect (at 5.25 11.475) (size 0.9 1.5) (layers "F.Cu" "F.Paste" "F.Mask") (tstamp d4226322-67b3-453a-ae8a-d0a48cdffe0e))
  (pad "26" smd rect (at 6.75 11.475) (size 0.9 1.5) (layers "F.Cu" "F.Paste" "F.Mask") (tstamp 31432684-e8a8-4719-b2dd-357040f680a0))
  (pad "27" smd rect (at 8.625 10.825) (size 1.5 0.9) (layers "F.Cu" "F.Paste" "F.Mask") (tstamp 92ef200f-a31e-407e-ade5-38b8491bf0ce))
  (pad "28" smd rect (at 8.625 9.325) (size 1.5 0.9) (layers "F.Cu" "F.Paste" "F.Mask") (tstamp f045fd28-d7aa-462e-94f3-b07fe7c4f75e))
  (pad "29" smd rect (at 8.625 7.825) (size 1.5 0.9) (layers "F.Cu" "F.Paste" "F.Mask") (tstamp 8179f900-2f23-437b-8d9a-3706a23f8cc4))
  (pad "30" smd rect (at 8.625 6.325) (size 1.5 0.9) (layers "F.Cu" "F.Paste" "F.Mask") (tstamp 94393289-1ec9-4c43-a587-f6fdff9d7838))
  (pad "31" smd rect (at 8.625 4.825) (size 1.5 0.9) (layers "F.Cu" "F.Paste" "F.Mask") (tstamp a87208c3-2d5e-4f07-8bfc-6ba6f2da0827))
  (pad "32" smd rect (at 8.625 3.325) (size 1.5 0.9) (layers "F.Cu" "F.Paste" "F.Mask") (tstamp 0f775ace-e7df-47b3-a6c7-3bd616d0dd40))
  (pad "33" smd rect (at 8.625 1.825) (size 1.5 0.9) (layers "F.Cu" "F.Paste" "F.Mask") (tstamp 5bb81689-571a-4393-a558-4be3addcd7b6))
  (pad "34" smd rect (at 8.625 0.325) (size 1.5 0.9) (layers "F.Cu" "F.Paste" "F.Mask") (tstamp cb5dae1a-7d7b-4b17-a8ab-39b1ebfd3c06))
  (pad "35" smd rect (at 8.625 -1.175) (size 1.5 0.9) (layers "F.Cu" "F.Paste" "F.Mask") (tstamp 32e8fd4e-4450-4a6b-9c87-7fc8308e0188))
  (pad "36" smd rect (at 8.625 -2.675) (size 1.5 0.9) (layers "F.Cu" "F.Paste" "F.Mask") (tstamp 521892c5-519d-4963-b4b3-23a263d6a836))
  (pad "37" smd rect (at 8.625 -4.175) (size 1.5 0.9) (layers "F.Cu" "F.Paste" "F.Mask") (tstamp 0d370d38-0805-45a1-8b61-81a6a72746ad))
  (pad "38" smd rect (at 8.625 -5.675) (size 1.5 0.9) (layers "F.Cu" "F.Paste" "F.Mask") (tstamp 964bf0a9-82aa-4434-b94b-e1bf90db35a0))
  (pad "39" smd rect (at 8.625 -7.175) (size 1.5 0.9) (layers "F.Cu" "F.Paste" "F.Mask") (tstamp e74836df-2e28-4efc-8fca-228988d68ba5))
  (pad "40" smd rect (at 8.625 -8.775) (size 1.5 0.9) (layers "F.Cu" "F.Paste" "F.Mask") (tstamp 2412a2ba-f05b-4fdd-a9ec-f4766e4de66e))
  (pad "41" smd rect (at 8.625 -10.275) (size 1.5 0.9) (layers "F.Cu" "F.Paste" "F.Mask") (tstamp 64b842c2-aed9-47f9-b32c-2a91d5d51382))
  (pad "42" smd rect (at 8.625 -11.675) (size 1.5 0.9) (layers "F.Cu" "F.Paste" "F.Mask") (tstamp 3633dcff-084a-4661-897f-42948902dc40))
  (pad "43" smd rect (at -1.19 -3.735) (size 4.1 4.1) (layers "F.Cu" "F.Paste" "F.Mask") (tstamp 20007ac5-ad35-49f5-b0ed-5b363cdf361a))
  (model "${KICAD6_3DMODEL_DIR}/RF_Module.3dshapes/ESP32-S2-WROVER.wrl"
    (offset (xyz 0 0 0))
    (scale (xyz 1 1 1))
    (rotate (xyz 0 0 0))
  )
)
