(footprint "RFDigital_RFD77101" (version 20211014) (generator pcbnew)
  (layer "F.Cu")
  (tedit 5A030172)
  (descr "RFDigital RFD77101 Simblee")
  (tags "RFDigital RFD77101 Simblee")
  (attr smd)
  (fp_text reference "REF**" (at 0 -5.76) (layer "F.SilkS")
    (effects (font (size 1 1) (thickness 0.15)))
    (tstamp 2d13c743-a922-4ed6-bec5-8e60850ec9fb)
  )
  (fp_text value "RFDigital_RFD77101" (at 0 6.25) (layer "F.Fab")
    (effects (font (size 1 1) (thickness 0.15)))
    (tstamp 7756e8e9-20dd-4822-b4f6-a12e55ba08fa)
  )
  (fp_text user "${REFERENCE}" (at 0 0) (layer "F.Fab")
    (effects (font (size 1.6 1.6) (thickness 0.16)))
    (tstamp ac6eb012-55fd-4ac9-bfa9-f9841358d8bb)
  )
  (fp_line (start 3.61 -4.75) (end 3.61 -5.11) (layer "F.SilkS") (width 0.12) (tstamp 0a43d380-ff10-44e6-9e9a-8251cbd7e121))
  (fp_line (start -3.61 4.75) (end -3.61 5.11) (layer "F.SilkS") (width 0.12) (tstamp 2aba20a8-07e2-4782-b77e-1c666871118d))
  (fp_line (start 3.61 5.11) (end 2.5 5.11) (layer "F.SilkS") (width 0.12) (tstamp 3a29a2d8-912f-45af-93ba-5fc9b85e408c))
  (fp_line (start 3.61 -5.11) (end 2.5 -5.11) (layer "F.SilkS") (width 0.12) (tstamp c05e226d-a271-4eb7-a041-7b2d5742ef80))
  (fp_line (start -3.61 5.11) (end -2.5 5.11) (layer "F.SilkS") (width 0.12) (tstamp e988d2bc-f60d-40b2-90df-74bb76683eb2))
  (fp_line (start 3.61 4.75) (end 3.61 5.11) (layer "F.SilkS") (width 0.12) (tstamp f168d82a-b463-4a31-84bc-7da0d0e519cb))
  (fp_line (start -3.61 -5.11) (end -2.5 -5.11) (layer "F.SilkS") (width 0.12) (tstamp fae7d586-1819-4ab9-9583-5df7ab606d40))
  (fp_line (start 4.06 5.47) (end 4.06 -5.42) (layer "F.CrtYd") (width 0.05) (tstamp 2877efd5-5110-46f5-b1ed-398aa41d8629))
  (fp_line (start -4.06 5.47) (end 4.06 5.47) (layer "F.CrtYd") (width 0.05) (tstamp bdb8ef40-ec7e-4d32-bb0b-19223e4ccfc5))
  (fp_line (start 4.06 -5.42) (end -4.06 -5.42) (layer "F.CrtYd") (width 0.05) (tstamp db7b9a47-87a1-4f53-9e4e-4536cb08ea10))
  (fp_line (start -4.06 -5.42) (end -4.06 5.47) (layer "F.CrtYd") (width 0.05) (tstamp dd727817-87d2-48bc-8364-559215fe4813))
  (fp_line (start 3.5 -5) (end -2.75 -5) (layer "F.Fab") (width 0.1) (tstamp 733f9f5a-325d-4dcb-81bd-87eabcec5035))
  (fp_line (start 3.5 5) (end 3.5 -5) (layer "F.Fab") (width 0.1) (tstamp 95f28a5d-17ec-4fb9-bd7e-0630694cedb9))
  (fp_line (start -2.75 -5) (end -3.5 -4.25) (layer "F.Fab") (width 0.1) (tstamp 9c95004f-7436-4b3d-9f9d-df662845b7f5))
  (fp_line (start -3.5 -4.25) (end -3.5 5) (layer "F.Fab") (width 0.1) (tstamp 9f5dcd9a-ec09-40ff-b355-a7903f3bef5b))
  (fp_line (start -3.5 5) (end 3.5 5) (layer "F.Fab") (width 0.1) (tstamp a4a10b21-b126-4b07-b91a-fddf6d0a4f87))
  (pad "1" smd rect (at -3.305 -4.57) (size 1 0.254) (layers "F.Cu" "F.Paste" "F.Mask") (tstamp 0d942e3c-4a20-4af5-afab-6f177a744af6))
  (pad "2" smd rect (at -3.305 -4.07) (size 1 0.254) (layers "F.Cu" "F.Paste" "F.Mask") (tstamp edd5ee77-09ae-4e5f-99e9-aaa6e6363b85))
  (pad "3" smd rect (at -3.305 -3.57) (size 1 0.254) (layers "F.Cu" "F.Paste" "F.Mask") (tstamp 5e5140a4-4836-4672-acec-ad215c023c09))
  (pad "4" smd rect (at -3.305 -3.07) (size 1 0.254) (layers "F.Cu" "F.Paste" "F.Mask") (tstamp c3a08968-af59-49f9-b419-e413ea32960a))
  (pad "5" smd rect (at -3.305 -2.57) (size 1 0.254) (layers "F.Cu" "F.Paste" "F.Mask") (tstamp 03af8e3e-232f-4251-979d-777509296227))
  (pad "6" smd rect (at -3.305 -2.07) (size 1 0.254) (layers "F.Cu" "F.Paste" "F.Mask") (tstamp 424b7184-ba8a-4d31-a2ab-b18284990968))
  (pad "7" smd rect (at -3.305 -1.57) (size 1 0.254) (layers "F.Cu" "F.Paste" "F.Mask") (tstamp 22b05b71-c79d-40f1-b65f-10f387a69a58))
  (pad "8" smd rect (at -3.305 -1.07) (size 1 0.254) (layers "F.Cu" "F.Paste" "F.Mask") (tstamp ad1ebd7d-8dac-4f69-a122-8f0da15f29a3))
  (pad "9" smd rect (at -3.305 -0.57) (size 1 0.254) (layers "F.Cu" "F.Paste" "F.Mask") (tstamp c405d27c-75f8-4d33-b741-279c7386e61e))
  (pad "10" smd rect (at -3.305 -0.07) (size 1 0.254) (layers "F.Cu" "F.Paste" "F.Mask") (tstamp 9a1a9bd4-2daa-4307-83e5-6b58a05b85f3))
  (pad "11" smd rect (at -3.305 0.47) (size 1 0.254) (layers "F.Cu" "F.Paste" "F.Mask") (tstamp 99b76560-b84b-49c9-baee-e0e0ff29e5b3))
  (pad "12" smd rect (at -3.305 0.97) (size 1 0.254) (layers "F.Cu" "F.Paste" "F.Mask") (tstamp cbf74a22-569f-4979-b3c4-cab46f06ec9d))
  (pad "13" smd rect (at -3.305 1.47) (size 1 0.254) (layers "F.Cu" "F.Paste" "F.Mask") (tstamp b0749d20-a98e-4820-a974-735f6a256522))
  (pad "14" smd rect (at -3.305 1.97) (size 1 0.254) (layers "F.Cu" "F.Paste" "F.Mask") (tstamp 410176f2-01f4-4d0a-a8fa-f8dcc165e6b2))
  (pad "15" smd rect (at -3.305 2.47) (size 1 0.254) (layers "F.Cu" "F.Paste" "F.Mask") (tstamp 4a4c312f-a55d-4baf-b11f-2afad3c5e9e7))
  (pad "16" smd rect (at -3.305 2.97) (size 1 0.254) (layers "F.Cu" "F.Paste" "F.Mask") (tstamp 1db192ff-919a-4c7a-9b25-cb871e14da60))
  (pad "17" smd rect (at -3.305 3.47) (size 1 0.254) (layers "F.Cu" "F.Paste" "F.Mask") (tstamp c2e0af6c-4f90-46ff-88cb-3d38e5333324))
  (pad "18" smd rect (at -3.305 3.97) (size 1 0.254) (layers "F.Cu" "F.Paste" "F.Mask") (tstamp 9276fb7b-8bb7-4ea3-a476-09c5fbf9b3e4))
  (pad "19" smd rect (at -3.305 4.47) (size 1 0.254) (layers "F.Cu" "F.Paste" "F.Mask") (tstamp 0102b1b6-1cf6-4f45-ab70-10dbeedc7156))
  (pad "20" smd rect (at -2.25 4.72 90) (size 1 0.254) (layers "F.Cu" "F.Paste" "F.Mask") (tstamp 45fe0d10-bf85-48f5-838a-c4fa66fe810e))
  (pad "21" smd rect (at -1.75 4.72 90) (size 1 0.254) (layers "F.Cu" "F.Paste" "F.Mask") (tstamp 6ce30419-f1ee-4c80-9a09-fe1b2ab543e3))
  (pad "22" smd rect (at -1.25 4.72 90) (size 1 0.254) (layers "F.Cu" "F.Paste" "F.Mask") (tstamp fdd83039-8c2e-47e3-96ef-91d7828d6a83))
  (pad "23" smd rect (at -0.75 4.72 90) (size 1 0.254) (layers "F.Cu" "F.Paste" "F.Mask") (tstamp c9986bd1-b386-4ec3-9399-f8f3f4a76ae9))
  (pad "24" smd rect (at -0.25 4.72 90) (size 1 0.254) (layers "F.Cu" "F.Paste" "F.Mask") (tstamp 3dbeec30-5d05-404d-bd4d-0acb392a085c))
  (pad "25" smd rect (at 0.25 4.72 90) (size 1 0.254) (layers "F.Cu" "F.Paste" "F.Mask") (tstamp 9938d5d7-0de4-40c2-96d4-282d11073350))
  (pad "26" smd rect (at 0.75 4.72 90) (size 1 0.254) (layers "F.Cu" "F.Paste" "F.Mask") (tstamp a7cb8d8f-d5ac-414f-9a3e-d80f1bc45c66))
  (pad "27" smd rect (at 1.25 4.72 90) (size 1 0.254) (layers "F.Cu" "F.Paste" "F.Mask") (tstamp e10bd3d1-e248-4e61-acc3-2f163775df61))
  (pad "28" smd rect (at 1.75 4.72 90) (size 1 0.254) (layers "F.Cu" "F.Paste" "F.Mask") (tstamp b26a1d50-0d6c-46b5-9b2a-9658d49ab07e))
  (pad "29" smd rect (at 2.25 4.72 90) (size 1 0.254) (layers "F.Cu" "F.Paste" "F.Mask") (tstamp 50e5babd-747f-45c6-babe-01924c5a6301))
  (pad "30" smd rect (at 3.305 4.47) (size 1 0.254) (layers "F.Cu" "F.Paste" "F.Mask") (tstamp 2e5975fd-e63c-4f67-9a61-ec73840d3034))
  (pad "31" smd rect (at 3.305 3.97) (size 1 0.254) (layers "F.Cu" "F.Paste" "F.Mask") (tstamp fd0f8e3c-dbbf-458b-a6f7-924a87b32eaa))
  (pad "32" smd rect (at 3.305 3.47) (size 1 0.254) (layers "F.Cu" "F.Paste" "F.Mask") (tstamp f600afa2-b638-4ac6-a1fb-44640a03b0f6))
  (pad "33" smd rect (at 3.305 2.97) (size 1 0.254) (layers "F.Cu" "F.Paste" "F.Mask") (tstamp 3cd44e99-6c1a-46ed-bb0c-522ec443dd37))
  (pad "34" smd rect (at 3.305 2.47) (size 1 0.254) (layers "F.Cu" "F.Paste" "F.Mask") (tstamp cbe3bd4a-ae0e-4cd3-8ecd-eca3fbd9569c))
  (pad "35" smd rect (at 3.305 1.97) (size 1 0.254) (layers "F.Cu" "F.Paste" "F.Mask") (tstamp 98662151-8582-4a80-af28-f406ad8fac2f))
  (pad "36" smd rect (at 3.305 1.47) (size 1 0.254) (layers "F.Cu" "F.Paste" "F.Mask") (tstamp 51778185-7364-4278-9862-ea1c996d2ce2))
  (pad "37" smd rect (at 3.305 0.97) (size 1 0.254) (layers "F.Cu" "F.Paste" "F.Mask") (tstamp d12be5b1-c7f6-4d33-9028-3f49bd3a2740))
  (pad "38" smd rect (at 3.305 0.47) (size 1 0.254) (layers "F.Cu" "F.Paste" "F.Mask") (tstamp 16775f96-9dbf-43de-bc9e-a2b507bb67fb))
  (pad "39" smd rect (at 3.305 -0.07) (size 1 0.254) (layers "F.Cu" "F.Paste" "F.Mask") (tstamp 4e5bb365-848f-464f-956e-809a7a99aa9a))
  (pad "40" smd rect (at 3.305 -0.57) (size 1 0.254) (layers "F.Cu" "F.Paste" "F.Mask") (tstamp f4ae5485-3cf1-4c8f-9d15-c52d04dfdc2a))
  (pad "41" smd rect (at 3.305 -1.07) (size 1 0.254) (layers "F.Cu" "F.Paste" "F.Mask") (tstamp 2a683728-8705-4bfe-9020-24d2b07ab267))
  (pad "42" smd rect (at -0.7475 0.6725) (size 1.01 1.01) (layers "F.Cu" "F.Paste" "F.Mask") (tstamp 01366f9b-6baf-4874-970f-1d983dbad9db))
  (pad "42" smd rect (at -1.2525 0.6725) (size 1.01 1.01) (layers "F.Cu" "F.Paste" "F.Mask") (tstamp 371393fa-b5ed-4b5c-a2e9-75e4bbe363b8))
  (pad "42" smd rect (at -0.7475 0.1675) (size 1.01 1.01) (layers "F.Cu" "F.Paste" "F.Mask") (tstamp 51b8d009-4f02-40ea-9bac-3d45e6fd76af))
  (pad "42" smd rect (at -1.2525 0.1675 45) (size 0.7144 0.7144) (layers "F.Cu" "F.Paste" "F.Mask") (tstamp bebd76f8-b45a-4395-a589-4a8ee79efb51))
  (pad "43" smd rect (at -1 2.4) (size 1.5 1.5) (layers "F.Cu" "F.Paste" "F.Mask") (tstamp 65dd9975-869a-480b-97f9-24f5ccdd1a47))
  (pad "44" smd rect (at 1 2.4) (size 1.5 1.5) (layers "F.Cu" "F.Paste" "F.Mask") (tstamp ad82bd55-bcb6-458d-8d6e-54997f111663))
  (pad "45" smd rect (at 1 0.42) (size 1.5 1.5) (layers "F.Cu" "F.Paste" "F.Mask") (tstamp 07a48782-fcbe-43ec-a7ce-98ee75524f1d))
  (model "${KICAD6_3DMODEL_DIR}/RF_Module.3dshapes/RFDigital_RFD77101.wrl"
    (offset (xyz 0 0 0))
    (scale (xyz 1 1 1))
    (rotate (xyz 0 0 0))
  )
)
