(footprint "TD1208" (version 20211014) (generator pcbnew)
  (layer "F.Cu")
  (tedit 5AE1CB17)
  (descr "https://github.com/Telecom-Design/Documentation_TD_RF_Module/blob/master/TD1208%20Datasheet.pdf")
  (tags "SIGFOX Module")
  (attr smd)
  (fp_text reference "REF**" (at -5.5 15.135) (layer "F.SilkS")
    (effects (font (size 1 1) (thickness 0.15)))
    (tstamp 6e2748e3-3afa-429c-9e8b-a4f3036a2cd6)
  )
  (fp_text value "TD1208" (at 0 1.905) (layer "F.Fab")
    (effects (font (size 1 1) (thickness 0.15)))
    (tstamp 0127f0fc-0179-4df1-b8d3-07046c18a7a2)
  )
  (fp_text user "Keepout" (at 2.95 -8.825) (layer "Cmts.User")
    (effects (font (size 0.65 0.65) (thickness 0.12)))
    (tstamp b3d1450a-20ae-407e-8db7-dfd8795fcbcc)
  )
  (fp_text user "${REFERENCE}" (at 0 -0.635) (layer "F.Fab")
    (effects (font (size 1 1) (thickness 0.15)))
    (tstamp b483a087-44a6-46f7-ae70-6c108830ff38)
  )
  (fp_line (start 6.477 -12.192) (end 3.477 -12.192) (layer "F.SilkS") (width 0.15) (tstamp 080d2a69-fed7-434b-ab6b-db7152322b7e))
  (fp_line (start -6.477 -4.191) (end -6.477 -2.667) (layer "F.SilkS") (width 0.15) (tstamp 0d44cce8-55e9-4b7d-9d23-d76c7c19c2ec))
  (fp_line (start -6.477 -12.192) (end -3.556 -12.192) (layer "F.SilkS") (width 0.15) (tstamp 20feb73c-27bd-43cb-940b-e6499a09ed07))
  (fp_line (start -6.477 13.462) (end -3.477 13.462) (layer "F.SilkS") (width 0.15) (tstamp 3494e367-9b06-4817-a440-f2cb215ba641))
  (fp_line (start 6.477 11.557) (end 6.477 13.462) (layer "F.SilkS") (width 0.15) (tstamp 44eb8b31-49c4-473b-8740-079412811bb7))
  (fp_line (start 6.477 13.462) (end 3.477 13.462) (layer "F.SilkS") (width 0.15) (tstamp 72c8525e-61a0-444a-a2a7-aeb5c318a23e))
  (fp_line (start -6.477 -2.667) (end -7.747 -2.667) (layer "F.SilkS") (width 0.15) (tstamp 842d15ae-bd7d-487b-9cc8-39349595011a))
  (fp_line (start 6.477 -12.192) (end 6.477 -11.557) (layer "F.SilkS") (width 0.15) (tstamp 9c637393-b331-48b3-81ff-8eed09250d4e))
  (fp_line (start -6.477 11.557) (end -6.477 13.462) (layer "F.SilkS") (width 0.15) (tstamp e07075ee-df97-4093-b8d3-8dc6cc601b58))
  (fp_line (start -6.477 -12.192) (end -6.477 -9.192) (layer "F.SilkS") (width 0.15) (tstamp e208a510-3129-4c5a-82ca-89c0fcd9c488))
  (fp_line (start 4.95 -6.825) (end 4.95 -10.825) (layer "Dwgs.User") (width 0.05) (tstamp 0d20b95a-3d26-4e9c-aeaa-47ed6033ef09))
  (fp_line (start 4.95 -7.325) (end 4.45 -6.825) (layer "Dwgs.User") (width 0.05) (tstamp 11ad8934-7ef5-4b95-8d00-7093471ee4bf))
  (fp_line (start 0.95 -10.825) (end 0.95 -6.825) (layer "Dwgs.User") (width 0.05) (tstamp 17c013ce-cc9e-4483-90af-a20777cff9eb))
  (fp_line (start 1.95 -10.825) (end 0.95 -9.825) (layer "Dwgs.User") (width 0.05) (tstamp 24eb7701-19e7-40c0-8698-9b55a93838b6))
  (fp_line (start 4.95 -9.825) (end 1.95 -6.825) (layer "Dwgs.User") (width 0.05) (tstamp 44c45bf8-1fd4-4c7b-b9bc-875ba3ad221e))
  (fp_line (start 4.95 -10.325) (end 1.45 -6.825) (layer "Dwgs.User") (width 0.05) (tstamp 4d0f20ee-833f-4ec7-8474-42f7af85ca6c))
  (fp_line (start 0.95 -6.825) (end 4.95 -6.825) (layer "Dwgs.User") (width 0.05) (tstamp 51187037-07b6-4514-a310-fc5240536e02))
  (fp_line (start 3.45 -10.825) (end 0.95 -8.325) (layer "Dwgs.User") (width 0.05) (tstamp 6180cce1-0cbc-4bb9-9546-4a7c4ec64b76))
  (fp_line (start 4.95 -7.825) (end 3.95 -6.825) (layer "Dwgs.User") (width 0.05) (tstamp 765e622a-ff33-4f1d-aa4b-63779eda4331))
  (fp_line (start 4.95 -10.825) (end 0.95 -6.825) (layer "Dwgs.User") (width 0.05) (tstamp 7b78c419-f01a-413e-af9b-7237128bc6fe))
  (fp_line (start 4.95 -9.325) (end 2.45 -6.825) (layer "Dwgs.User") (width 0.05) (tstamp 7f3c5e30-93e1-4293-8442-cdfdfa886694))
  (fp_line (start 2.45 -10.825) (end 0.95 -9.325) (layer "Dwgs.User") (width 0.05) (tstamp 82acc9f7-6230-4bf6-9cc9-61fefd272434))
  (fp_line (start 4.95 -8.825) (end 2.95 -6.825) (layer "Dwgs.User") (width 0.05) (tstamp 9d88deb2-8754-47e5-9f2f-23b72dee8c79))
  (fp_line (start 1.45 -10.825) (end 0.95 -10.325) (layer "Dwgs.User") (width 0.05) (tstamp a69746cb-6ef9-48af-97d2-3e851bad9132))
  (fp_line (start 4.95 -8.325) (end 3.45 -6.825) (layer "Dwgs.User") (width 0.05) (tstamp c80fb78e-b5d2-4409-ba2b-77126932b647))
  (fp_line (start 2.95 -10.825) (end 0.95 -8.825) (layer "Dwgs.User") (width 0.05) (tstamp d4648a08-2357-469e-8ba4-b341be6c42c2))
  (fp_line (start 4.95 -10.825) (end 0.95 -10.825) (layer "Dwgs.User") (width 0.05) (tstamp e8dfb264-73f4-441a-8af0-318ce1de610d))
  (fp_line (start 4.45 -10.825) (end 0.95 -7.325) (layer "Dwgs.User") (width 0.05) (tstamp f1d25819-b0df-4d09-8574-23d643dedcfe))
  (fp_line (start 3.95 -10.825) (end 0.95 -7.825) (layer "Dwgs.User") (width 0.05) (tstamp f8d75cd7-007e-4091-a9a8-220901d5b051))
  (fp_line (start 7.8 -12.32) (end -7.8 -12.32) (layer "F.CrtYd") (width 0.05) (tstamp 52967134-2a21-4c0a-b4e2-ce34641fabae))
  (fp_line (start 7.8 13.59) (end 7.8 -12.32) (layer "F.CrtYd") (width 0.05) (tstamp 715b4e78-43f4-4160-9e27-d979d5fc40e7))
  (fp_line (start -7.8 -12.32) (end -7.8 13.59) (layer "F.CrtYd") (width 0.05) (tstamp 83092cdc-f552-4a30-b771-81fcce0b2b23))
  (fp_line (start -7.8 13.59) (end 7.8 13.59) (layer "F.CrtYd") (width 0.05) (tstamp b9be1448-fcc6-454a-bbc3-b5cb80b97251))
  (fp_line (start -6.35 -12.065) (end 6.35 -12.065) (layer "F.Fab") (width 0.127) (tstamp 359b1467-bc2b-4b18-b099-1453f017d679))
  (fp_line (start -6.35 -2.655) (end -5.35 -1.905) (layer "F.Fab") (width 0.12) (tstamp 4dc12142-665d-45d3-a770-2faa98d49aa7))
  (fp_line (start 6.35 13.335) (end -6.35 13.335) (layer "F.Fab") (width 0.127) (tstamp 4faf0786-318f-43b9-b537-4fb8baa53279))
  (fp_line (start -5.35 -1.905) (end -6.35 -1.155) (layer "F.Fab") (width 0.12) (tstamp 8fa5d1e4-7806-4065-8277-33db4269bd08))
  (fp_line (start 6.35 -12.065) (end 6.35 13.335) (layer "F.Fab") (width 0.127) (tstamp 9cbe1fa6-2e67-49aa-bbd7-7ea6efc5d3ce))
  (fp_line (start -6.35 -12.065) (end -6.35 13.335) (layer "F.Fab") (width 0.127) (tstamp d36e4121-b5d2-4945-b5ec-e06ddcb93c8b))
  (pad "1" smd rect (at -6.25 -1.905) (size 2.6 0.89) (layers "F.Cu" "F.Paste" "F.Mask") (tstamp edc0d46a-41f7-4dc6-a948-e3665b902b93))
  (pad "2" smd rect (at -6.25 -0.635) (size 2.6 0.89) (layers "F.Cu" "F.Paste" "F.Mask") (tstamp b24dbe58-997a-46e9-8471-2b00a78cfec9))
  (pad "3" smd rect (at -6.25 0.635) (size 2.6 0.89) (layers "F.Cu" "F.Paste" "F.Mask") (tstamp 2f38a9eb-ec19-4140-83aa-d9ae2734165c))
  (pad "4" smd rect (at -6.25 1.905) (size 2.6 0.89) (layers "F.Cu" "F.Paste" "F.Mask") (tstamp 02504b14-11b9-4aee-86af-01c7d020f9fa))
  (pad "5" smd rect (at -6.25 3.175) (size 2.6 0.89) (layers "F.Cu" "F.Paste" "F.Mask") (tstamp 2c0b0676-0d0b-4b36-9ffa-2b8828055cad))
  (pad "6" smd rect (at -6.25 4.445) (size 2.6 0.89) (layers "F.Cu" "F.Paste" "F.Mask") (tstamp 50017c67-a7ec-49e7-8e29-00dea1a54764))
  (pad "7" smd rect (at -6.25 5.715) (size 2.6 0.89) (layers "F.Cu" "F.Paste" "F.Mask") (tstamp 11fc51fa-9b8f-4998-ba4d-1f2e64b55aeb))
  (pad "8" smd rect (at -6.25 6.985) (size 2.6 0.89) (layers "F.Cu" "F.Paste" "F.Mask") (tstamp 4627e7df-10c6-4e89-92dc-3dbae74e0f65))
  (pad "9" smd rect (at -6.25 8.255) (size 2.6 0.89) (layers "F.Cu" "F.Paste" "F.Mask") (tstamp 6f3faa80-258b-498a-b157-78227e6c0b1d))
  (pad "10" smd rect (at -6.25 9.525) (size 2.6 0.89) (layers "F.Cu" "F.Paste" "F.Mask") (tstamp 167613f6-ac4e-4d7b-bc6a-ce2fa976e361))
  (pad "11" smd rect (at -6.25 10.795) (size 2.6 0.89) (layers "F.Cu" "F.Paste" "F.Mask") (tstamp 84cfd7c8-45fd-4b63-bdae-2c0a11c4265e))
  (pad "12" smd rect (at 6.25 10.795) (size 2.6 0.89) (layers "F.Cu" "F.Paste" "F.Mask") (tstamp 846ac5e6-0310-4513-aa96-e70c7f7b87e9))
  (pad "13" smd rect (at 6.25 9.525) (size 2.6 0.89) (layers "F.Cu" "F.Paste" "F.Mask") (tstamp 4564d1ba-c835-4de4-afac-1befc97cf010))
  (pad "14" smd rect (at 6.25 8.255) (size 2.6 0.89) (layers "F.Cu" "F.Paste" "F.Mask") (tstamp e3db3ede-dd69-48d0-806b-11f2e90f5ece))
  (pad "15" smd rect (at 6.25 6.985) (size 2.6 0.89) (layers "F.Cu" "F.Paste" "F.Mask") (tstamp 5efe0d6b-10da-439a-b953-22ca92a39754))
  (pad "16" smd rect (at 6.25 5.715) (size 2.6 0.89) (layers "F.Cu" "F.Paste" "F.Mask") (tstamp 5f99fefb-d6ce-4e73-8b74-4753884128c8))
  (pad "17" smd rect (at 6.25 4.445) (size 2.6 0.89) (layers "F.Cu" "F.Paste" "F.Mask") (tstamp 757160d8-3479-4613-b317-e5fb6dc1709b))
  (pad "18" smd rect (at 6.25 3.175) (size 2.6 0.89) (layers "F.Cu" "F.Paste" "F.Mask") (tstamp 2d25d834-642e-455d-9bdf-8a70060933f1))
  (pad "19" smd rect (at 6.25 1.905) (size 2.6 0.89) (layers "F.Cu" "F.Paste" "F.Mask") (tstamp d844cd1b-d072-4b37-9cb5-72785ba401a3))
  (pad "20" smd rect (at 6.25 0.635) (size 2.6 0.89) (layers "F.Cu" "F.Paste" "F.Mask") (tstamp def4a4e9-a133-4b9a-a67f-412f95c1516e))
  (pad "21" smd rect (at 6.25 -0.635) (size 2.6 0.89) (layers "F.Cu" "F.Paste" "F.Mask") (tstamp 0f33c886-6a09-4a6e-89cc-72a14cdf1f4b))
  (pad "22" smd rect (at 6.25 -1.905) (size 2.6 0.89) (layers "F.Cu" "F.Paste" "F.Mask") (tstamp 68030178-b553-4713-812b-2f4ed22fc5e7))
  (pad "23" smd rect (at 6.25 -8.285) (size 2.6 0.89) (layers "F.Cu" "F.Paste" "F.Mask") (tstamp 96ca58d1-64e6-4530-913b-71bb814ddfda))
  (pad "24" smd rect (at 6.25 -9.555) (size 2.6 0.89) (layers "F.Cu" "F.Paste" "F.Mask") (tstamp 19fce3a2-5417-4a69-a32c-a1cd39ac022f))
  (pad "25" smd rect (at 6.25 -10.825) (size 2.6 0.89) (layers "F.Cu" "F.Paste" "F.Mask") (tstamp 13c61cdb-b182-416a-90ec-4eb85f243109))
  (model "${KICAD6_3DMODEL_DIR}/RF_Module.3dshapes/TD1208.wrl"
    (offset (xyz 0 0 0))
    (scale (xyz 1 1 1))
    (rotate (xyz 0 0 0))
  )
)
