(footprint "MountingHole_6.4mm_M6_DIN965_Pad" (version 20211014) (generator pcbnew)
  (layer "F.Cu")
  (tedit 56D1B4CB)
  (descr "Mounting Hole 6.4mm, M6, DIN965")
  (tags "mounting hole 6.4mm m6 din965")
  (attr exclude_from_pos_files exclude_from_bom)
  (fp_text reference "REF**" (at 0 -6.5) (layer "F.SilkS")
    (effects (font (size 1 1) (thickness 0.15)))
    (tstamp c43a1ca6-e8ab-4a86-a334-8882955f2955)
  )
  (fp_text value "MountingHole_6.4mm_M6_DIN965_Pad" (at 0 6.5) (layer "F.Fab")
    (effects (font (size 1 1) (thickness 0.15)))
    (tstamp c73476f3-9518-4c98-9f9d-c5eedf145afa)
  )
  (fp_text user "${REFERENCE}" (at 0.3 0) (layer "F.Fab")
    (effects (font (size 1 1) (thickness 0.15)))
    (tstamp 0603b89b-4149-4418-ab01-596a18dea685)
  )
  (fp_circle (center 0 0) (end 5.5 0) (layer "Cmts.User") (width 0.15) (fill none) (tstamp 8805ebf6-2c9f-479a-909f-163c7b596723))
  (fp_circle (center 0 0) (end 5.75 0) (layer "F.CrtYd") (width 0.05) (fill none) (tstamp 3fda0a35-5aef-46e7-b5ea-e26f2782d3b2))
  (pad "1" thru_hole circle (at 0 0) (size 11 11) (drill 6.4) (layers *.Cu *.Mask) (tstamp bb5ea649-fd20-4b61-8f73-4cbba7bb5008))
)
