(footprint "MountingHole_5.3mm_M5_DIN965" (version 20211014) (generator pcbnew)
  (layer "F.Cu")
  (tedit 56D1B4CB)
  (descr "Mounting Hole 5.3mm, no annular, M5, DIN965")
  (tags "mounting hole 5.3mm no annular m5 din965")
  (attr exclude_from_pos_files exclude_from_bom)
  (fp_text reference "REF**" (at 0 -5.6) (layer "F.SilkS")
    (effects (font (size 1 1) (thickness 0.15)))
    (tstamp a00a6638-bef8-4501-bda3-36d1d4d66172)
  )
  (fp_text value "MountingHole_5.3mm_M5_DIN965" (at 0 5.6) (layer "F.Fab")
    (effects (font (size 1 1) (thickness 0.15)))
    (tstamp e2ad5244-d1f3-4c6f-af61-222d735c8e9e)
  )
  (fp_text user "${REFERENCE}" (at 0.3 0) (layer "F.Fab")
    (effects (font (size 1 1) (thickness 0.15)))
    (tstamp bb8aeb7b-94e8-41c0-a3a7-2ccac3b881b2)
  )
  (fp_circle (center 0 0) (end 4.6 0) (layer "Cmts.User") (width 0.15) (fill none) (tstamp af8de314-6af8-4a4c-9506-a5b9890989fe))
  (fp_circle (center 0 0) (end 4.85 0) (layer "F.CrtYd") (width 0.05) (fill none) (tstamp 7377df26-0234-4cde-a8d2-8cfa31fe1bb6))
  (pad "" np_thru_hole circle (at 0 0) (size 5.3 5.3) (drill 5.3) (layers *.Cu *.Mask) (tstamp 039c94e5-993b-4013-ade5-e4db96a3ce2b))
)
