(footprint "MountingHole_6.4mm_M6_Pad" (version 20211014) (generator pcbnew)
  (layer "F.Cu")
  (tedit 56D1B4CB)
  (descr "Mounting Hole 6.4mm, M6")
  (tags "mounting hole 6.4mm m6")
  (attr exclude_from_pos_files exclude_from_bom)
  (fp_text reference "REF**" (at 0 -7.4) (layer "F.SilkS")
    (effects (font (size 1 1) (thickness 0.15)))
    (tstamp 5983e224-1735-4689-ac69-170a45e7105b)
  )
  (fp_text value "MountingHole_6.4mm_M6_Pad" (at 0 7.4) (layer "F.Fab")
    (effects (font (size 1 1) (thickness 0.15)))
    (tstamp 8001aac4-fd7d-44dd-bd03-5b85ed9f69ff)
  )
  (fp_text user "${REFERENCE}" (at 0.3 0) (layer "F.Fab")
    (effects (font (size 1 1) (thickness 0.15)))
    (tstamp a1f31c25-5b98-4918-94b6-a08dc3acdc09)
  )
  (fp_circle (center 0 0) (end 6.4 0) (layer "Cmts.User") (width 0.15) (fill none) (tstamp ecf6288b-7d0b-4e75-b34e-a03c686342c6))
  (fp_circle (center 0 0) (end 6.65 0) (layer "F.CrtYd") (width 0.05) (fill none) (tstamp 6da06e2b-1961-4017-ab99-48cd29fd4ea0))
  (pad "1" thru_hole circle (at 0 0) (size 12.8 12.8) (drill 6.4) (layers *.Cu *.Mask) (tstamp a2272d7a-963e-4324-822a-fa06267e4a1d))
)
