(footprint "MountingHole_5mm" (version 20211014) (generator pcbnew)
  (layer "F.Cu")
  (tedit 56D1B4CB)
  (descr "Mounting Hole 5mm, no annular")
  (tags "mounting hole 5mm no annular")
  (attr exclude_from_pos_files exclude_from_bom)
  (fp_text reference "REF**" (at 0 -6) (layer "F.SilkS")
    (effects (font (size 1 1) (thickness 0.15)))
    (tstamp adf4930c-7c0b-41e4-8c3e-39e4e856f55e)
  )
  (fp_text value "MountingHole_5mm" (at 0 6) (layer "F.Fab")
    (effects (font (size 1 1) (thickness 0.15)))
    (tstamp ea74182d-cd8a-4d4b-b973-4fe61b16dd3f)
  )
  (fp_text user "${REFERENCE}" (at 0.3 0) (layer "F.Fab")
    (effects (font (size 1 1) (thickness 0.15)))
    (tstamp 54883b8f-e130-4206-9e59-ee6e73cab37d)
  )
  (fp_circle (center 0 0) (end 5 0) (layer "Cmts.User") (width 0.15) (fill none) (tstamp 8a2578e3-35d5-4418-adb4-70f68e06e91b))
  (fp_circle (center 0 0) (end 5.25 0) (layer "F.CrtYd") (width 0.05) (fill none) (tstamp cf37d773-62f4-41f2-9278-4cd7fcc423e6))
  (pad "" np_thru_hole circle (at 0 0) (size 5 5) (drill 5) (layers *.Cu *.Mask) (tstamp 06135796-ea99-49b0-b3f3-389bcc1ce413))
)
