(footprint "MountingHole_5.5mm_Pad" (version 20211014) (generator pcbnew)
  (layer "F.Cu")
  (tedit 56D1B4CB)
  (descr "Mounting Hole 5.5mm")
  (tags "mounting hole 5.5mm")
  (attr exclude_from_pos_files exclude_from_bom)
  (fp_text reference "REF**" (at 0 -6.5) (layer "F.SilkS")
    (effects (font (size 1 1) (thickness 0.15)))
    (tstamp 17819486-8132-47a2-8c04-fea9b480acce)
  )
  (fp_text value "MountingHole_5.5mm_Pad" (at 0 6.5) (layer "F.Fab")
    (effects (font (size 1 1) (thickness 0.15)))
    (tstamp a5bb83d1-53fa-4455-a2f8-6be912a44800)
  )
  (fp_text user "${REFERENCE}" (at 0.3 0) (layer "F.Fab")
    (effects (font (size 1 1) (thickness 0.15)))
    (tstamp a5b3a234-5091-497f-8090-c620e73eb87d)
  )
  (fp_circle (center 0 0) (end 5.5 0) (layer "Cmts.User") (width 0.15) (fill none) (tstamp a68bc25c-28ea-4cf2-9c28-13dda15487ab))
  (fp_circle (center 0 0) (end 5.75 0) (layer "F.CrtYd") (width 0.05) (fill none) (tstamp 0ca4f090-a2fb-4a46-986b-e5bf5fca9648))
  (pad "1" thru_hole circle (at 0 0) (size 11 11) (drill 5.5) (layers *.Cu *.Mask) (tstamp b65393e0-fe97-4bb4-b01c-33cd489f0da5))
)
