(footprint "MountingHole_2.2mm_M2_ISO7380_Pad_TopBottom" (version 20211014) (generator pcbnew)
  (layer "F.Cu")
  (tedit 56D1B4CB)
  (descr "Mounting Hole 2.2mm, M2, ISO7380")
  (tags "mounting hole 2.2mm m2 iso7380")
  (attr exclude_from_pos_files exclude_from_bom)
  (fp_text reference "REF**" (at 0 -2.75) (layer "F.SilkS")
    (effects (font (size 1 1) (thickness 0.15)))
    (tstamp d8c2ec34-0324-495d-a2c6-0bbdef9beca3)
  )
  (fp_text value "MountingHole_2.2mm_M2_ISO7380_Pad_TopBottom" (at 0 2.75) (layer "F.Fab")
    (effects (font (size 1 1) (thickness 0.15)))
    (tstamp 43da6f58-eaa1-4ace-9d52-181ada2147e9)
  )
  (fp_text user "${REFERENCE}" (at 0.3 0) (layer "F.Fab")
    (effects (font (size 1 1) (thickness 0.15)))
    (tstamp 05a7839e-0ecd-4890-ad2a-fa640f224cbe)
  )
  (fp_circle (center 0 0) (end 1.75 0) (layer "Cmts.User") (width 0.15) (fill none) (tstamp a579bcbd-ece3-463b-b366-641fd221996d))
  (fp_circle (center 0 0) (end 2 0) (layer "F.CrtYd") (width 0.05) (fill none) (tstamp a06dec95-0f77-410c-91e5-f45a743bf37c))
  (pad "1" connect circle (at 0 0) (size 3.5 3.5) (layers "B.Cu" "B.Mask") (tstamp 2fb24f5b-225b-4c78-bcf1-4519bc7bdf04))
  (pad "1" thru_hole circle (at 0 0) (size 2.6 2.6) (drill 2.2) (layers *.Cu *.Mask) (tstamp 47105c2a-6cae-4629-8d09-7f2983c6cbd3))
  (pad "1" connect circle (at 0 0) (size 3.5 3.5) (layers "F.Cu" "F.Mask") (tstamp f3c36b8d-30e1-4d70-841b-0d49bc6f0624))
)
