(footprint "MountingHole_5.3mm_M5_Pad" (version 20211014) (generator pcbnew)
  (layer "F.Cu")
  (tedit 56D1B4CB)
  (descr "Mounting Hole 5.3mm, M5")
  (tags "mounting hole 5.3mm m5")
  (attr exclude_from_pos_files exclude_from_bom)
  (fp_text reference "REF**" (at 0 -6.3) (layer "F.SilkS")
    (effects (font (size 1 1) (thickness 0.15)))
    (tstamp ebc388b5-dbcb-4414-9761-17a46deb21a4)
  )
  (fp_text value "MountingHole_5.3mm_M5_Pad" (at 0 6.3) (layer "F.Fab")
    (effects (font (size 1 1) (thickness 0.15)))
    (tstamp b22d37a4-603b-4740-a0ce-c8bbfc909a9a)
  )
  (fp_text user "${REFERENCE}" (at 0.3 0) (layer "F.Fab")
    (effects (font (size 1 1) (thickness 0.15)))
    (tstamp 6d4b3155-c916-4af2-803c-28f65c3b2cd3)
  )
  (fp_circle (center 0 0) (end 5.3 0) (layer "Cmts.User") (width 0.15) (fill none) (tstamp debea373-608e-4240-8050-20122e10f4e0))
  (fp_circle (center 0 0) (end 5.55 0) (layer "F.CrtYd") (width 0.05) (fill none) (tstamp 6e5c44f2-cd20-4c5a-814f-b079f0fc56a7))
  (pad "1" thru_hole circle (at 0 0) (size 10.6 10.6) (drill 5.3) (layers *.Cu *.Mask) (tstamp 416d3e31-bfc9-4407-a36b-ff6f87dcc5ad))
)
