(footprint "MountingHole_2.7mm_M2.5_ISO14580_Pad_TopOnly" (version 20211014) (generator pcbnew)
  (layer "F.Cu")
  (tedit 56D1B4CB)
  (descr "Mounting Hole 2.7mm, M2.5, ISO14580")
  (tags "mounting hole 2.7mm m2.5 iso14580")
  (attr exclude_from_pos_files exclude_from_bom)
  (fp_text reference "REF**" (at 0 -3.25) (layer "F.SilkS")
    (effects (font (size 1 1) (thickness 0.15)))
    (tstamp 455112ec-5fbb-4734-b09c-c605da136f1b)
  )
  (fp_text value "MountingHole_2.7mm_M2.5_ISO14580_Pad_TopOnly" (at 0 3.25) (layer "F.Fab")
    (effects (font (size 1 1) (thickness 0.15)))
    (tstamp fdc06cde-8fff-43f4-ad78-64a5f2b6695c)
  )
  (fp_text user "${REFERENCE}" (at 0.3 0) (layer "F.Fab")
    (effects (font (size 1 1) (thickness 0.15)))
    (tstamp 2cb129ed-d6b7-426d-b93f-31cb581b3ca8)
  )
  (fp_circle (center 0 0) (end 2.25 0) (layer "Cmts.User") (width 0.15) (fill none) (tstamp b6848af8-9376-425b-95ff-e40a09e8b75d))
  (fp_circle (center 0 0) (end 2.5 0) (layer "F.CrtYd") (width 0.05) (fill none) (tstamp f2cef897-e491-4ad5-8033-a6de2a882158))
  (pad "1" connect circle (at 0 0) (size 4.5 4.5) (layers "F.Cu" "F.Mask") (tstamp 97ba9e7c-9c23-413a-b741-cfa23fc9037c))
  (pad "1" thru_hole circle (at 0 0) (size 3.1 3.1) (drill 2.7) (layers *.Cu *.Mask) (tstamp bbd4dc70-f195-4b7c-a196-699dd0c4e1a9))
)
