(footprint "MountingHole_3.2mm_M3_ISO7380_Pad_TopBottom" (version 20211014) (generator pcbnew)
  (layer "F.Cu")
  (tedit 56D1B4CB)
  (descr "Mounting Hole 3.2mm, M3, ISO7380")
  (tags "mounting hole 3.2mm m3 iso7380")
  (attr exclude_from_pos_files exclude_from_bom)
  (fp_text reference "REF**" (at 0 -3.85) (layer "F.SilkS")
    (effects (font (size 1 1) (thickness 0.15)))
    (tstamp f6861431-717f-48e7-b084-403a78af2fa8)
  )
  (fp_text value "MountingHole_3.2mm_M3_ISO7380_Pad_TopBottom" (at 0 3.85) (layer "F.Fab")
    (effects (font (size 1 1) (thickness 0.15)))
    (tstamp b8f240d3-7dff-4789-92c7-0f90fb49536f)
  )
  (fp_text user "${REFERENCE}" (at 0.3 0) (layer "F.Fab")
    (effects (font (size 1 1) (thickness 0.15)))
    (tstamp 906b3a56-82fe-45df-b232-7c8ff2195151)
  )
  (fp_circle (center 0 0) (end 2.85 0) (layer "Cmts.User") (width 0.15) (fill none) (tstamp cda18713-7918-44c4-82ae-344e5d4daf0b))
  (fp_circle (center 0 0) (end 3.1 0) (layer "F.CrtYd") (width 0.05) (fill none) (tstamp 5c26b5d2-ebd8-4374-9a5b-9ce8567aa061))
  (pad "1" connect circle (at 0 0) (size 5.7 5.7) (layers "F.Cu" "F.Mask") (tstamp 43b2afff-68ba-4687-a3a8-70df6d0f782a))
  (pad "1" connect circle (at 0 0) (size 5.7 5.7) (layers "B.Cu" "B.Mask") (tstamp 6d34ebb9-8c2a-4c8e-a736-e35050a54ac0))
  (pad "1" thru_hole circle (at 0 0) (size 3.6 3.6) (drill 3.2) (layers *.Cu *.Mask) (tstamp 738377e1-7800-47af-a20a-0b3db880f18c))
)
