(footprint "MountingHole_4.3mm_M4_Pad_Via" (version 20211014) (generator pcbnew)
  (layer "F.Cu")
  (tedit 56DDBFD7)
  (descr "Mounting Hole 4.3mm, M4")
  (tags "mounting hole 4.3mm m4")
  (attr exclude_from_pos_files exclude_from_bom)
  (fp_text reference "REF**" (at 0 -5.3) (layer "F.SilkS")
    (effects (font (size 1 1) (thickness 0.15)))
    (tstamp 2f6942ab-e92a-483b-b6ca-02922a6901cb)
  )
  (fp_text value "MountingHole_4.3mm_M4_Pad_Via" (at 0 5.3) (layer "F.Fab")
    (effects (font (size 1 1) (thickness 0.15)))
    (tstamp c7aa58e8-31c7-492b-9b31-e3ef61f8c36d)
  )
  (fp_text user "${REFERENCE}" (at 0.3 0) (layer "F.Fab")
    (effects (font (size 1 1) (thickness 0.15)))
    (tstamp 34f19c3e-ff80-4de3-b7c7-034a294ba0d9)
  )
  (fp_circle (center 0 0) (end 4.3 0) (layer "Cmts.User") (width 0.15) (fill none) (tstamp 7bb22b3b-2712-44d5-a428-2461f9f41b9f))
  (fp_circle (center 0 0) (end 4.55 0) (layer "F.CrtYd") (width 0.05) (fill none) (tstamp bae4c305-62f9-471d-ab58-80cc2242937d))
  (pad "1" thru_hole circle (at 0 0) (size 8.6 8.6) (drill 4.3) (layers *.Cu *.Mask) (tstamp 2875ab53-5c5a-4904-8381-702bb02a1459))
  (pad "1" thru_hole circle (at 0 3.225) (size 0.9 0.9) (drill 0.6) (layers *.Cu *.Mask) (tstamp 44a90501-3388-4af3-ad17-1a9a2a99d275))
  (pad "1" thru_hole circle (at -2.280419 2.280419) (size 0.9 0.9) (drill 0.6) (layers *.Cu *.Mask) (tstamp 471406d8-298b-4d01-9d78-9535877e10e2))
  (pad "1" thru_hole circle (at 2.280419 -2.280419) (size 0.9 0.9) (drill 0.6) (layers *.Cu *.Mask) (tstamp 9502ac37-635d-4eac-ba29-5c814a6bb2dd))
  (pad "1" thru_hole circle (at 2.280419 2.280419) (size 0.9 0.9) (drill 0.6) (layers *.Cu *.Mask) (tstamp c330c8c9-f73a-4221-a09c-79554fc5dd15))
  (pad "1" thru_hole circle (at -3.225 0) (size 0.9 0.9) (drill 0.6) (layers *.Cu *.Mask) (tstamp c3f7505e-4dea-4575-be85-ce6d15cc4d21))
  (pad "1" thru_hole circle (at -2.280419 -2.280419) (size 0.9 0.9) (drill 0.6) (layers *.Cu *.Mask) (tstamp d3125dd6-487a-4585-86a2-73579cd2b789))
  (pad "1" thru_hole circle (at 0 -3.225) (size 0.9 0.9) (drill 0.6) (layers *.Cu *.Mask) (tstamp d7a619f3-7d47-4364-bfc4-5e0eae68d835))
  (pad "1" thru_hole circle (at 3.225 0) (size 0.9 0.9) (drill 0.6) (layers *.Cu *.Mask) (tstamp df265826-6774-49b6-b0a3-0cd552324a12))
)
