(footprint "MountingHole_3.5mm_Pad_TopOnly" (version 20211014) (generator pcbnew)
  (layer "F.Cu")
  (tedit 56D1B4CB)
  (descr "Mounting Hole 3.5mm")
  (tags "mounting hole 3.5mm")
  (attr exclude_from_pos_files exclude_from_bom)
  (fp_text reference "REF**" (at 0 -4.5) (layer "F.SilkS")
    (effects (font (size 1 1) (thickness 0.15)))
    (tstamp 74573200-5375-4465-9934-2e5894dad9f5)
  )
  (fp_text value "MountingHole_3.5mm_Pad_TopOnly" (at 0 4.5) (layer "F.Fab")
    (effects (font (size 1 1) (thickness 0.15)))
    (tstamp 59ad8072-945c-463f-af57-99d880d6133f)
  )
  (fp_text user "${REFERENCE}" (at 0.3 0) (layer "F.Fab")
    (effects (font (size 1 1) (thickness 0.15)))
    (tstamp e27077e7-612a-4c58-88a7-d8f8b85e2ff1)
  )
  (fp_circle (center 0 0) (end 3.5 0) (layer "Cmts.User") (width 0.15) (fill none) (tstamp fb779745-4ebd-4d06-bc24-f6e25fb5355b))
  (fp_circle (center 0 0) (end 3.75 0) (layer "F.CrtYd") (width 0.05) (fill none) (tstamp b6c057d7-0225-4ec5-b896-0521e50fe72d))
  (pad "1" thru_hole circle (at 0 0) (size 3.9 3.9) (drill 3.5) (layers *.Cu *.Mask) (tstamp 5d5e2279-1ab6-4d60-9df9-94d2381c6629))
  (pad "1" connect circle (at 0 0) (size 7 7) (layers "F.Cu" "F.Mask") (tstamp db922f0a-398d-4db6-9764-ca045f903908))
)
