(footprint "MountingHole_4.3mm_M4_Pad_TopOnly" (version 20211014) (generator pcbnew)
  (layer "F.Cu")
  (tedit 56D1B4CB)
  (descr "Mounting Hole 4.3mm, M4")
  (tags "mounting hole 4.3mm m4")
  (attr exclude_from_pos_files exclude_from_bom)
  (fp_text reference "REF**" (at 0 -5.3) (layer "F.SilkS")
    (effects (font (size 1 1) (thickness 0.15)))
    (tstamp fa070164-bf51-455b-bb1f-289e5010386f)
  )
  (fp_text value "MountingHole_4.3mm_M4_Pad_TopOnly" (at 0 5.3) (layer "F.Fab")
    (effects (font (size 1 1) (thickness 0.15)))
    (tstamp 2d280b7f-e96f-44f7-a17c-f7cad0fef931)
  )
  (fp_text user "${REFERENCE}" (at 0.3 0) (layer "F.Fab")
    (effects (font (size 1 1) (thickness 0.15)))
    (tstamp b36051f5-2744-4c7a-8bdc-f2f1308c395d)
  )
  (fp_circle (center 0 0) (end 4.3 0) (layer "Cmts.User") (width 0.15) (fill none) (tstamp 556ada19-87ae-44ff-8224-2d43d5277557))
  (fp_circle (center 0 0) (end 4.55 0) (layer "F.CrtYd") (width 0.05) (fill none) (tstamp 8c4b6942-d64a-4466-b9c0-2917a2dc8728))
  (pad "1" thru_hole circle (at 0 0) (size 4.7 4.7) (drill 4.3) (layers *.Cu *.Mask) (tstamp 42eedce7-7696-4834-8a43-99f7bb8cc160))
  (pad "1" connect circle (at 0 0) (size 8.6 8.6) (layers "F.Cu" "F.Mask") (tstamp 50d66849-84a2-463f-846a-3ece28c18668))
)
