(footprint "MountingHole_2.7mm_M2.5_ISO14580_Pad" (version 20211014) (generator pcbnew)
  (layer "F.Cu")
  (tedit 56D1B4CB)
  (descr "Mounting Hole 2.7mm, M2.5, ISO14580")
  (tags "mounting hole 2.7mm m2.5 iso14580")
  (attr exclude_from_pos_files exclude_from_bom)
  (fp_text reference "REF**" (at 0 -3.25) (layer "F.SilkS")
    (effects (font (size 1 1) (thickness 0.15)))
    (tstamp bdf4d38a-1675-486b-9e7f-5ac623224ae1)
  )
  (fp_text value "MountingHole_2.7mm_M2.5_ISO14580_Pad" (at 0 3.25) (layer "F.Fab")
    (effects (font (size 1 1) (thickness 0.15)))
    (tstamp dcd4a317-6688-441e-849f-f41410ed3518)
  )
  (fp_text user "${REFERENCE}" (at 0.3 0) (layer "F.Fab")
    (effects (font (size 1 1) (thickness 0.15)))
    (tstamp 7197d9f7-f772-4131-9f0d-334ee98d5021)
  )
  (fp_circle (center 0 0) (end 2.25 0) (layer "Cmts.User") (width 0.15) (fill none) (tstamp fc44a0d1-b4d9-48db-97df-1748d1cca7d1))
  (fp_circle (center 0 0) (end 2.5 0) (layer "F.CrtYd") (width 0.05) (fill none) (tstamp d417316d-1d88-4ae9-be3c-2971d3cd155d))
  (pad "1" thru_hole circle (at 0 0) (size 4.5 4.5) (drill 2.7) (layers *.Cu *.Mask) (tstamp 1c5f09ae-c4a7-47aa-b2d3-870a58ed2de3))
)
