(footprint "MountingHole_2.2mm_M2_Pad_TopBottom" (version 20211014) (generator pcbnew)
  (layer "F.Cu")
  (tedit 56D1B4CB)
  (descr "Mounting Hole 2.2mm, M2")
  (tags "mounting hole 2.2mm m2")
  (attr exclude_from_pos_files exclude_from_bom)
  (fp_text reference "REF**" (at 0 -3.2) (layer "F.SilkS")
    (effects (font (size 1 1) (thickness 0.15)))
    (tstamp b9de16c9-47ef-4cc9-9479-7f3077863f33)
  )
  (fp_text value "MountingHole_2.2mm_M2_Pad_TopBottom" (at 0 3.2) (layer "F.Fab")
    (effects (font (size 1 1) (thickness 0.15)))
    (tstamp 1a05cf3a-da57-4ebb-b6ae-18896d8a0e98)
  )
  (fp_text user "${REFERENCE}" (at 0.3 0) (layer "F.Fab")
    (effects (font (size 1 1) (thickness 0.15)))
    (tstamp 7aa39b87-3c93-4e06-b0d4-8e520811e4a4)
  )
  (fp_circle (center 0 0) (end 2.2 0) (layer "Cmts.User") (width 0.15) (fill none) (tstamp 348c8c21-e2d3-4332-91d1-98e9dcd0216b))
  (fp_circle (center 0 0) (end 2.45 0) (layer "F.CrtYd") (width 0.05) (fill none) (tstamp c3053fea-72b8-4dce-9a32-d2d7a8d36beb))
  (pad "1" connect circle (at 0 0) (size 4.4 4.4) (layers "F.Cu" "F.Mask") (tstamp 1b4f5e40-3985-46e4-b7ae-0021cb590209))
  (pad "1" connect circle (at 0 0) (size 4.4 4.4) (layers "B.Cu" "B.Mask") (tstamp 3100a98a-bba8-4c97-84cc-3728f34631c7))
  (pad "1" thru_hole circle (at 0 0) (size 2.6 2.6) (drill 2.2) (layers *.Cu *.Mask) (tstamp ebf85440-5ff1-478f-a492-b9d564abc48d))
)
