(footprint "MountingHole_6.4mm_M6_ISO14580_Pad" (version 20211014) (generator pcbnew)
  (layer "F.Cu")
  (tedit 56D1B4CB)
  (descr "Mounting Hole 6.4mm, M6, ISO14580")
  (tags "mounting hole 6.4mm m6 iso14580")
  (attr exclude_from_pos_files exclude_from_bom)
  (fp_text reference "REF**" (at 0 -6) (layer "F.SilkS")
    (effects (font (size 1 1) (thickness 0.15)))
    (tstamp 626114ed-1637-46e6-a46c-82ee5d433c3e)
  )
  (fp_text value "MountingHole_6.4mm_M6_ISO14580_Pad" (at 0 6) (layer "F.Fab")
    (effects (font (size 1 1) (thickness 0.15)))
    (tstamp f33e2454-c1ef-43fb-a1f1-e8ec43cf78c1)
  )
  (fp_text user "${REFERENCE}" (at 0.3 0) (layer "F.Fab")
    (effects (font (size 1 1) (thickness 0.15)))
    (tstamp 602ec260-3134-4705-b0b8-0aef9ca84714)
  )
  (fp_circle (center 0 0) (end 5 0) (layer "Cmts.User") (width 0.15) (fill none) (tstamp c5593d16-03ec-4404-a276-79ba1a17a95a))
  (fp_circle (center 0 0) (end 5.25 0) (layer "F.CrtYd") (width 0.05) (fill none) (tstamp 7f20a997-68d2-4196-b00d-74b35c945666))
  (pad "1" thru_hole circle (at 0 0) (size 10 10) (drill 6.4) (layers *.Cu *.Mask) (tstamp ed299352-fb14-4323-8e18-fd8a982175df))
)
