(footprint "MountingHole_2.2mm_M2_DIN965_Pad_TopBottom" (version 20211014) (generator pcbnew)
  (layer "F.Cu")
  (tedit 56D1B4CB)
  (descr "Mounting Hole 2.2mm, M2, DIN965")
  (tags "mounting hole 2.2mm m2 din965")
  (attr exclude_from_pos_files exclude_from_bom)
  (fp_text reference "REF**" (at 0 -2.9) (layer "F.SilkS")
    (effects (font (size 1 1) (thickness 0.15)))
    (tstamp e14266ef-7792-4847-a6c2-50eb9dd738f7)
  )
  (fp_text value "MountingHole_2.2mm_M2_DIN965_Pad_TopBottom" (at 0 2.9) (layer "F.Fab")
    (effects (font (size 1 1) (thickness 0.15)))
    (tstamp bdb3e0c1-403f-4bb5-a007-cd9541b69ab7)
  )
  (fp_text user "${REFERENCE}" (at 0.3 0) (layer "F.Fab")
    (effects (font (size 1 1) (thickness 0.15)))
    (tstamp 32ec8386-2e60-4ea3-a48d-02341859db36)
  )
  (fp_circle (center 0 0) (end 1.9 0) (layer "Cmts.User") (width 0.15) (fill none) (tstamp 79ebd5a2-4814-4442-b44c-4ae4f58f9215))
  (fp_circle (center 0 0) (end 2.15 0) (layer "F.CrtYd") (width 0.05) (fill none) (tstamp 895810e1-0fa6-4e94-9074-b02d47de3cd2))
  (pad "1" connect circle (at 0 0) (size 3.8 3.8) (layers "B.Cu" "B.Mask") (tstamp 0ce52d06-24b8-4063-9d63-0efeec8cc96d))
  (pad "1" connect circle (at 0 0) (size 3.8 3.8) (layers "F.Cu" "F.Mask") (tstamp d07d225d-cf1a-4c61-be80-ce682d65d63e))
  (pad "1" thru_hole circle (at 0 0) (size 2.6 2.6) (drill 2.2) (layers *.Cu *.Mask) (tstamp f2287541-6fae-4262-9eaa-af5ea9234556))
)
