(footprint "MountingHole_2.2mm_M2_Pad_TopOnly" (version 20211014) (generator pcbnew)
  (layer "F.Cu")
  (tedit 56D1B4CB)
  (descr "Mounting Hole 2.2mm, M2")
  (tags "mounting hole 2.2mm m2")
  (attr exclude_from_pos_files exclude_from_bom)
  (fp_text reference "REF**" (at 0 -3.2) (layer "F.SilkS")
    (effects (font (size 1 1) (thickness 0.15)))
    (tstamp fe95385a-4707-4ebd-952d-f598ab54e112)
  )
  (fp_text value "MountingHole_2.2mm_M2_Pad_TopOnly" (at 0 3.2) (layer "F.Fab")
    (effects (font (size 1 1) (thickness 0.15)))
    (tstamp dc88cd1c-763d-4589-a9e3-4d4426ad20dc)
  )
  (fp_text user "${REFERENCE}" (at 0.3 0) (layer "F.Fab")
    (effects (font (size 1 1) (thickness 0.15)))
    (tstamp 6095e128-e297-4e39-a325-808e9e96e807)
  )
  (fp_circle (center 0 0) (end 2.2 0) (layer "Cmts.User") (width 0.15) (fill none) (tstamp 4b92bb9b-2a4c-4f65-a26d-627950ab135d))
  (fp_circle (center 0 0) (end 2.45 0) (layer "F.CrtYd") (width 0.05) (fill none) (tstamp 7e8ec38a-22d5-487c-9866-446e5af62c37))
  (pad "1" thru_hole circle (at 0 0) (size 2.6 2.6) (drill 2.2) (layers *.Cu *.Mask) (tstamp 4ed72887-cb40-40b2-a00e-be7ad902d073))
  (pad "1" connect circle (at 0 0) (size 4.4 4.4) (layers "F.Cu" "F.Mask") (tstamp 580d9240-58c9-4da4-ae04-98307d654849))
)
