(footprint "MountingHole_4.3mm_M4_ISO14580_Pad_TopBottom" (version 20211014) (generator pcbnew)
  (layer "F.Cu")
  (tedit 56D1B4CB)
  (descr "Mounting Hole 4.3mm, M4, ISO14580")
  (tags "mounting hole 4.3mm m4 iso14580")
  (attr exclude_from_pos_files exclude_from_bom)
  (fp_text reference "REF**" (at 0 -4.5) (layer "F.SilkS")
    (effects (font (size 1 1) (thickness 0.15)))
    (tstamp 25a8c7a7-3549-49f1-be78-7e830d4727b7)
  )
  (fp_text value "MountingHole_4.3mm_M4_ISO14580_Pad_TopBottom" (at 0 4.5) (layer "F.Fab")
    (effects (font (size 1 1) (thickness 0.15)))
    (tstamp 4fe564f9-e8d3-4c76-a25c-95c08ccf20c0)
  )
  (fp_text user "${REFERENCE}" (at 0.3 0) (layer "F.Fab")
    (effects (font (size 1 1) (thickness 0.15)))
    (tstamp e3791ed7-06de-4f1c-9078-a7238dbfb216)
  )
  (fp_circle (center 0 0) (end 3.5 0) (layer "Cmts.User") (width 0.15) (fill none) (tstamp a72a29da-b6a8-4a81-9d9c-b0504b519f4f))
  (fp_circle (center 0 0) (end 3.75 0) (layer "F.CrtYd") (width 0.05) (fill none) (tstamp bc256fdb-7c0f-40b7-b064-eabba23d2b8e))
  (pad "1" connect circle (at 0 0) (size 7 7) (layers "B.Cu" "B.Mask") (tstamp a42022bc-a8f8-440a-9907-418f62925c5b))
  (pad "1" thru_hole circle (at 0 0) (size 4.7 4.7) (drill 4.3) (layers *.Cu *.Mask) (tstamp ce8c29ab-4990-4eec-b915-0e7cd3017c20))
  (pad "1" connect circle (at 0 0) (size 7 7) (layers "F.Cu" "F.Mask") (tstamp e9a823f7-5284-49c4-9a64-91ccbe085901))
)
