(footprint "MountingHole_4mm_Pad_TopBottom" (version 20211014) (generator pcbnew)
  (layer "F.Cu")
  (tedit 56D1B4CB)
  (descr "Mounting Hole 4mm")
  (tags "mounting hole 4mm")
  (attr exclude_from_pos_files exclude_from_bom)
  (fp_text reference "REF**" (at 0 -5) (layer "F.SilkS")
    (effects (font (size 1 1) (thickness 0.15)))
    (tstamp 9471d3f9-f563-4a33-83a7-8f2db47dd50f)
  )
  (fp_text value "MountingHole_4mm_Pad_TopBottom" (at 0 5) (layer "F.Fab")
    (effects (font (size 1 1) (thickness 0.15)))
    (tstamp 02dd656c-41d8-416a-bac6-96b51794ea8c)
  )
  (fp_text user "${REFERENCE}" (at 0.3 0) (layer "F.Fab")
    (effects (font (size 1 1) (thickness 0.15)))
    (tstamp 80480ddb-1e61-47b0-858d-4c5dec652057)
  )
  (fp_circle (center 0 0) (end 4 0) (layer "Cmts.User") (width 0.15) (fill none) (tstamp 050e63db-5b38-4fda-959d-f7400b84ef59))
  (fp_circle (center 0 0) (end 4.25 0) (layer "F.CrtYd") (width 0.05) (fill none) (tstamp 555d8d4e-4ee8-436d-9121-e0d18c80e1ae))
  (pad "1" connect circle (at 0 0) (size 8 8) (layers "B.Cu" "B.Mask") (tstamp 1bd815d1-f8d9-4f9f-ad7e-10e572b82974))
  (pad "1" connect circle (at 0 0) (size 8 8) (layers "F.Cu" "F.Mask") (tstamp 5b58dece-5025-4d42-ad19-535943971042))
  (pad "1" thru_hole circle (at 0 0) (size 4.4 4.4) (drill 4) (layers *.Cu *.Mask) (tstamp e7d22574-bcb4-4a5a-b5f9-a13fdfefd433))
)
