(footprint "SD_TE_2041021" (version 20211014) (generator pcbnew)
  (layer "F.Cu")
  (tedit 5A668550)
  (descr "SD card connector, top mount, SMT (http://www.te.com/commerce/DocumentDelivery/DDEController?Action=showdoc&DocId=Customer+Drawing%7F2041021%7FB%7Fpdf%7FEnglish%7FENG_CD_2041021_B_C_2041021_B.pdf%7F2041021-4)")
  (tags "sd card")
  (attr smd)
  (fp_text reference "REF**" (at 0 -13.6) (layer "F.SilkS")
    (effects (font (size 1 1) (thickness 0.15)))
    (tstamp dfca4a2f-2aae-45bd-93e0-8f33bd18dc5c)
  )
  (fp_text value "SD_TE_2041021" (at 0 4) (layer "F.Fab")
    (effects (font (size 1 1) (thickness 0.15)))
    (tstamp cbaf84e8-6364-4781-a830-03fe4711191b)
  )
  (fp_text user "KEEPOUT" (at 0 -3.56) (layer "Cmts.User")
    (effects (font (size 1 1) (thickness 0.15)))
    (tstamp 3015f8e3-e99d-4795-8d59-05b666daa5fc)
  )
  (fp_text user "${REFERENCE}" (at 0 2) (layer "F.Fab")
    (effects (font (size 1 1) (thickness 0.15)))
    (tstamp 4497b029-8b07-4106-9dfd-57cff2eba25a)
  )
  (fp_line (start 7.7 -11.695) (end 8.5 -11.695) (layer "F.SilkS") (width 0.12) (tstamp 1fcd04ff-b574-413b-af96-f96de0c4d649))
  (fp_line (start -7.2 -11.695) (end -6.5 -11.695) (layer "F.SilkS") (width 0.12) (tstamp 3320de9c-3805-49e4-913e-cb3fb91f4c31))
  (fp_line (start 13.47 13.545) (end 13.47 13.125) (layer "F.SilkS") (width 0.12) (tstamp 3f115407-affc-4670-9a02-0badce98745a))
  (fp_line (start 2.8 -11.695) (end 3.5 -11.695) (layer "F.SilkS") (width 0.12) (tstamp 47e95064-ec86-4da2-9ce0-2e80da101ded))
  (fp_line (start -13.37 13.125) (end -13.37 13.545) (layer "F.SilkS") (width 0.12) (tstamp 4c955703-fe8e-4725-9b14-7b7cf99d98b4))
  (fp_line (start 13.47 -3.775) (end 13.47 9.525) (layer "F.SilkS") (width 0.12) (tstamp 732a1708-5b45-45fe-86d0-920f61e8fb2d))
  (fp_line (start -4.8 -11.695) (end -4 -11.695) (layer "F.SilkS") (width 0.12) (tstamp 84657b8a-9b32-46eb-af6e-c106a57cd00e))
  (fp_line (start 5.2 -11.695) (end 6 -11.695) (layer "F.SilkS") (width 0.12) (tstamp 8d37c700-7433-40be-bdc6-de315e287b54))
  (fp_line (start -2.3 -11.695) (end -1.5 -11.695) (layer "F.SilkS") (width 0.12) (tstamp 901da1c4-c393-484a-9ed9-edad1362a684))
  (fp_line (start 11.17 -6.075) (end 13.47 -3.775) (layer "F.SilkS") (width 0.12) (tstamp ae0ba483-d4aa-45f6-903f-0f889ec6ed6b))
  (fp_line (start 11.17 -8.375) (end 11.17 -6.075) (layer "F.SilkS") (width 0.12) (tstamp bf95616a-140b-42b5-a9eb-8c712c0c9001))
  (fp_line (start 0.2 -11.695) (end 1 -11.695) (layer "F.SilkS") (width 0.12) (tstamp d24d58c9-bf57-4864-8bd9-b7cd5b2a1447))
  (fp_line (start -13.37 13.545) (end 13.47 13.545) (layer "F.SilkS") (width 0.12) (tstamp f78f3d16-ebbc-426b-96d9-668058230322))
  (fp_line (start -13.37 -8.375) (end -13.37 9.525) (layer "F.SilkS") (width 0.12) (tstamp f8d2a4b9-39b8-4a11-92cf-af8245712d84))
  (fp_line (start 10.2 -11.695) (end 10.4 -11.695) (layer "F.SilkS") (width 0.12) (tstamp fa184b74-6595-4cf1-afb8-506a9666fdf8))
  (fp_line (start 0.28 -8.075) (end -8.67 0.875) (layer "Dwgs.User") (width 0.1) (tstamp 00a20aa8-aa86-4a7b-9ac4-9fd19c498edb))
  (fp_line (start -1.72 -8.075) (end -10.67 0.875) (layer "Dwgs.User") (width 0.1) (tstamp 02e1ba48-21e4-45f6-97ba-2a72f62ea8e0))
  (fp_line (start 2.28 -8.075) (end -6.67 0.875) (layer "Dwgs.User") (width 0.1) (tstamp 0ae5271c-9b3e-4910-8291-8b8fa7b44c7b))
  (fp_line (start 10.3 0.875) (end 10.3 -8.075) (layer "Dwgs.User") (width 0.1) (tstamp 0c721e68-7ebf-4891-a6b0-70e0050f95c1))
  (fp_line (start -5.72 -8.075) (end -10.67 -3.125) (layer "Dwgs.User") (width 0.1) (tstamp 2375f5d5-d93b-4d3b-b6da-2561c25385c9))
  (fp_line (start -10.67 0.875) (end 10.3 0.875) (layer "Dwgs.User") (width 0.1) (tstamp 47b2fe17-473a-4df3-a05f-37673a0ec3a5))
  (fp_line (start 6.28 -8.075) (end -2.67 0.875) (layer "Dwgs.User") (width 0.1) (tstamp 495dad70-82d2-4e76-bb2b-f1861be1a841))
  (fp_line (start 10.28 -8.075) (end 1.33 0.875) (layer "Dwgs.User") (width 0.1) (tstamp 6d50e541-0673-42c1-910b-e31c8cb26539))
  (fp_line (start 8.28 -8.075) (end -0.67 0.875) (layer "Dwgs.User") (width 0.1) (tstamp 702037be-2411-4f09-b6cb-35ad4723eb3d))
  (fp_line (start -10.67 -8.075) (end -10.67 0.875) (layer "Dwgs.User") (width 0.1) (tstamp 831845c0-ef54-40a0-992c-bb7383b6bb7c))
  (fp_line (start 10.3 -4.095) (end 5.33 0.875) (layer "Dwgs.User") (width 0.1) (tstamp 99415024-c3cf-4650-87b8-531693f0270f))
  (fp_line (start 4.28 -8.075) (end -4.67 0.875) (layer "Dwgs.User") (width 0.1) (tstamp 9bb83b67-d56e-44ca-920c-419e090c4c8e))
  (fp_line (start -7.72 -8.075) (end -10.67 -5.125) (layer "Dwgs.User") (width 0.1) (tstamp a15a81b1-51ee-4a2e-ab88-0f601f5bf000))
  (fp_line (start 10.3 -6.095) (end 3.33 0.875) (layer "Dwgs.User") (width 0.1) (tstamp a1e16b9c-c52a-4646-9d88-bcbd2fdb0862))
  (fp_line (start 10.3 -0.095) (end 9.33 0.875) (layer "Dwgs.User") (width 0.1) (tstamp a72063bf-85a2-4434-84ac-bce90487ac92))
  (fp_line (start -9.72 -8.075) (end -10.67 -7.125) (layer "Dwgs.User") (width 0.1) (tstamp c1061784-0659-417f-92a7-02e1da2aecd2))
  (fp_line (start -3.72 -8.075) (end -10.67 -1.125) (layer "Dwgs.User") (width 0.1) (tstamp cca6301c-5a94-48e5-9003-98f75bafdc07))
  (fp_line (start 10.3 -8.075) (end -10.67 -8.075) (layer "Dwgs.User") (width 0.1) (tstamp df1ef1ad-5deb-4629-859a-e5bf8e47ae59))
  (fp_line (start 10.3 -2.095) (end 7.33 0.875) (layer "Dwgs.User") (width 0.1) (tstamp e62f5de7-817e-42a0-8b4e-ba4d567f614f))
  (fp_line (start 14.65 13.68) (end -14.65 13.68) (layer "F.CrtYd") (width 0.05) (tstamp 0dd55f5f-607a-4ec4-975c-9fcc1e5cd139))
  (fp_line (start 14.65 13.68) (end 14.65 -12.98) (layer "F.CrtYd") (width 0.05) (tstamp 28b58bd5-4a83-46ce-a7d3-72958e213d3a))
  (fp_line (start -14.65 -12.98) (end 14.65 -12.98) (layer "F.CrtYd") (width 0.05) (tstamp be4e99f1-7343-4c6b-beeb-d550b570a793))
  (fp_line (start -14.65 -12.98) (end -14.65 13.68) (layer "F.CrtYd") (width 0.05) (tstamp d0c41d7c-ba5d-4ce6-b7fb-9d9f59552127))
  (fp_line (start 13.35 -3.715) (end 11.05 -6.015) (layer "F.Fab") (width 0.1) (tstamp 0337313b-3984-4d1c-9fc7-5dcf08e9a39d))
  (fp_line (start 11.05 -6.015) (end 11.05 -11.575) (layer "F.Fab") (width 0.1) (tstamp 264c4910-3c54-4a6c-96f5-b1dd0fbeca10))
  (fp_line (start 11.05 -11.575) (end -13.25 -11.575) (layer "F.Fab") (width 0.1) (tstamp 37ca2b79-505a-47f6-8920-403212368fdd))
  (fp_line (start -13.25 -11.575) (end -13.25 13.425) (layer "F.Fab") (width 0.1) (tstamp 8b70f401-0017-44e4-a148-cf639d118bba))
  (fp_line (start -13.25 13.425) (end 13.35 13.425) (layer "F.Fab") (width 0.1) (tstamp 9a1661b6-b531-4050-b17c-9346024d03fb))
  (fp_line (start 13.35 13.425) (end 13.35 -3.715) (layer "F.Fab") (width 0.1) (tstamp adb6e2a6-36b3-4640-8a57-829472c40f4b))
  (pad "" np_thru_hole circle (at 9.5 -9.175) (size 1.6 1.6) (drill 1.6) (layers *.Cu *.Mask) (tstamp 34fc9c44-8a3b-4143-914e-72fef2902652))
  (pad "" np_thru_hole circle (at -11.5 -9.175) (size 1.1 1.1) (drill 1.1) (layers *.Cu *.Mask) (tstamp 635ba4af-270c-4c0e-992d-65160e956070))
  (pad "1" smd rect (at 6.875 -11.975) (size 1 1.5) (layers "F.Cu" "F.Paste" "F.Mask") (tstamp d4ca5abe-47f9-4fef-92fa-982b4c9f161c))
  (pad "2" smd rect (at 4.375 -11.975) (size 1 1.5) (layers "F.Cu" "F.Paste" "F.Mask") (tstamp f4bbbc43-db86-40e8-ac7b-d51524be2651))
  (pad "3" smd rect (at 1.875 -11.975) (size 1 1.5) (layers "F.Cu" "F.Paste" "F.Mask") (tstamp b8adfe05-fe9a-481d-9446-bbd25237c3d5))
  (pad "4" smd rect (at -0.625 -11.975) (size 1 1.5) (layers "F.Cu" "F.Paste" "F.Mask") (tstamp c3da0a17-3a58-410d-850d-c0868f8c76d3))
  (pad "5" smd rect (at -3.125 -11.975) (size 1 1.5) (layers "F.Cu" "F.Paste" "F.Mask") (tstamp 63a2cb14-8fd9-4ea4-959b-4996e5536e4a))
  (pad "6" smd rect (at -5.625 -11.975) (size 1 1.5) (layers "F.Cu" "F.Paste" "F.Mask") (tstamp 27316318-5767-490c-9e49-7f4ece569e05))
  (pad "7" smd rect (at -8.055 -11.975) (size 1 1.5) (layers "F.Cu" "F.Paste" "F.Mask") (tstamp cd4fec60-b544-4cb7-89ed-a9fac42675aa))
  (pad "8" smd rect (at -9.755 -11.975) (size 1 1.5) (layers "F.Cu" "F.Paste" "F.Mask") (tstamp 76c998f8-574a-406e-9386-9ff72f80faf4))
  (pad "9" smd rect (at 9.375 -11.975) (size 1 1.5) (layers "F.Cu" "F.Paste" "F.Mask") (tstamp 6aa918b0-8566-4673-b319-0d18de1e67ec))
  (pad "10" smd rect (at -11.055 -11.975) (size 0.7 1.5) (layers "F.Cu" "F.Paste" "F.Mask") (tstamp 559b698e-bc6c-404e-b9e6-77a5fb26f874))
  (pad "11" smd rect (at -12.255 -11.975) (size 0.7 1.5) (layers "F.Cu" "F.Paste" "F.Mask") (tstamp 3841d76d-8841-4241-8d65-0c5acac4310d))
  (pad "12" smd rect (at -13.65 11.325) (size 1.5 2.8) (layers "F.Cu" "F.Paste" "F.Mask") (tstamp 4e199068-9bfa-4d1f-ad10-5e1e7d0bc588))
  (pad "12" smd rect (at 13.65 11.325) (size 1.5 2.8) (layers "F.Cu" "F.Paste" "F.Mask") (tstamp 52280d8e-9895-4612-9a1c-9c5404b56db1))
  (pad "12" smd rect (at -13.65 -10.175) (size 1.5 2.8) (layers "F.Cu" "F.Paste" "F.Mask") (tstamp 5cd363da-db03-46b0-8300-d720ccd5beab))
  (pad "12" smd rect (at 11.45 -10.175) (size 1.5 2.8) (layers "F.Cu" "F.Paste" "F.Mask") (tstamp f76d4391-5c9e-44ef-98de-d253a2b348d7))
  (model "${KICAD6_3DMODEL_DIR}/Connector_Card.3dshapes/SD_TE_2041021.wrl"
    (offset (xyz 0 0 0))
    (scale (xyz 1 1 1))
    (rotate (xyz 0 0 0))
  )
)
